0 0.2006204654103696 0.40289099512873605 0.3685679659760175 0.5571535754848197
0 0.67734375 0.36015625 0.6421875 0.4578125
0 0.17116139198874988 0.06617224512873604 0.3329477839774998 0.13218084902377003
0 0.671875 0.07421875 0.653125 0.1390625