0 0.6514970509277822 0.48239855650848024 0.5936191018555645 0.9647971130169605
0 0.3378169303247781 0.5544014890799764 0.3324612978836664 0.15596192607271425
0 0.940625 0.46171875 0.115625 0.9234375
0 0.10812943032477809 0.5731507154522532 0.13258884364130097 0.14119856909549372