CrackData/train/504_JPG.rf.286ed1875915fe6006d6f9e6569e91d5.jpg
CrackData/train/121_jpg.rf.c161cbd45d15a86b19550b2281dcb14b.jpg
CrackData/train/091_jpg.rf.d6cdefa3ef38c703d3c107fd26d144ed.jpg
CrackData/train/290_jpg.rf.eb0a2cdef47bfe5cc34e87c93889d2e1.jpg
CrackData/train/062_jpg.rf.5d8f1d54e7f9ad7f40960abbe3ba2342.jpg
CrackData/train/385_JPG.rf.1929c39056124bcdc89a69a6c8a68f3f.jpg
CrackData/train/487_JPG.rf.d98aea65505fe66b145bb4be39c6f52c.jpg
CrackData/train/364_JPG.rf.06817ffbf466fc0e0381d5029e6cc96c.jpg
CrackData/train/285_jpg.rf.79f679676778e1e660a35928ed9f711f.jpg
CrackData/train/528_JPG.rf.8a996fe1dc8ee5582c18cfb8a7889afa.jpg
CrackData/train/027_jpg.rf.afa2cbe3a8bd6b342e298db6acaf11fd.jpg
CrackData/train/095_jpg.rf.e2edc8a09150a33f41134633db18eac7.jpg
CrackData/train/027_jpg.rf.96ec75f308944d04e214ee354e319611.jpg
CrackData/train/472_JPG.rf.95890269741f3c13b26e52e191bcd899.jpg
CrackData/train/459_JPG.rf.adf6d3831268c178e3cf5d1dc189a2a4.jpg
CrackData/train/277_jpg.rf.206ea9e81f7a191329cfe5f2ba63cd61.jpg
CrackData/train/106_jpg.rf.bd40cc29e622fb273d773c5768965cc3.jpg
CrackData/train/453_JPG.rf.50696f675546fc2f3456ccca0c7fca44.jpg
CrackData/train/082_jpg.rf.837a9575e60bac76d6db65b247adf61c.jpg
CrackData/train/264_jpg.rf.395774fa053b87d085001e2879c24ef7.jpg
CrackData/train/241_jpg.rf.2019c2626769c6713b1d877ed27d25f1.jpg
CrackData/train/441_JPG.rf.4c0ef11e0756cacdc17044844912bf6c.jpg
CrackData/train/415_JPG.rf.423168ff23cbac6737066330dd950310.jpg
CrackData/train/574_JPG.rf.a124baaf960c2c27f2b0f2b94724f2ee.jpg
CrackData/train/211_jpg.rf.e0cab215c4f933940b22649948dfa069.jpg
CrackData/train/464_JPG.rf.112134ca79eb633ec24db79f5d5e6552.jpg
CrackData/train/097_jpg.rf.58501e24432bee42782aaabc9aad0c47.jpg
CrackData/train/046_jpg.rf.3185bf7fa2c5d6cc9e951f80566d3053.jpg
CrackData/train/420_JPG.rf.4976edd6f1260ad256503e9fb1409f13.jpg
CrackData/train/136_jpg.rf.c1671c1e378db35064579d410284cead.jpg
CrackData/train/410_JPG.rf.c6a3a71ae28dbb7d467b8a3162350788.jpg
CrackData/train/094_jpg.rf.9f409f7d4da99238b9956564cc00f345.jpg
CrackData/train/541_JPG.rf.cdcd2dec32ba940f795920606b58b7a1.jpg
CrackData/train/297_jpg.rf.7232702d23a685b2db3f721b23b6e825.jpg
CrackData/train/516_JPG.rf.799f362b9e3578bdcf8abc4da75ea47c.jpg
CrackData/train/265_jpg.rf.162f80020dbb7cbc10fee452cbdbea7a.jpg
CrackData/train/091_jpg.rf.36d52c30ceea563e61457c98424562f2.jpg
CrackData/train/175_jpg.rf.3218b49dbf060963ce86d6444b46bf74.jpg
CrackData/train/434_JPG.rf.800987462c7033f87618f9840cddecb6.jpg
CrackData/train/506_JPG.rf.fc882bd0fe17798069d480b2dcd8541f.jpg
CrackData/train/079_jpg.rf.7c978fe7ad51c92888d7cd6ae24bc34d.jpg
CrackData/train/072_jpg.rf.86e7eb7c3c87215b65a3e13e0923a162.jpg
CrackData/train/379_JPG.rf.e318951c2735875277f0eabcc3f856dd.jpg
CrackData/train/515_JPG.rf.ecaf147a328af845ae0767fa91348e97.jpg
CrackData/train/370_JPG.rf.851e239c5f0da0a4e93e12f75d8fe576.jpg
CrackData/train/106_jpg.rf.223f97e82ac1e36fd9cce0096ba6ce33.jpg
CrackData/train/115_jpg.rf.9923781eb7dbddc9782300e459f66568.jpg
CrackData/train/210_jpg.rf.4fee7b4dd3403ba8bd179d34e737d4ee.jpg
CrackData/train/240_jpg.rf.d520a14a04f424dd8f5ad08c21bfa6cf.jpg
CrackData/train/233_jpg.rf.7179c57b05a5d0eb98e0e5a1a692458c.jpg
CrackData/train/021_jpg.rf.28e56da671b7c31d5677b02f5892fe04.jpg
CrackData/train/533_JPG.rf.f41b3d755623ebc55e80e5f69eab8103.jpg
CrackData/train/045_jpg.rf.f185de1e411c49d20ab767f0dc72e36a.jpg
CrackData/train/043_jpg.rf.0a3cdafb4735ab0fc74015b19ac716ac.jpg
CrackData/train/108_jpg.rf.6637a9970ff20c82a9a77ea2643eeec9.jpg
CrackData/train/240_jpg.rf.85734a0829278f4eb6bbb1a1b1a94dee.jpg
CrackData/train/513_JPG.rf.6bada524587bcb383c4db0c08699fd31.jpg
CrackData/train/011_jpg.rf.e292e3f6bb025a001d6e34ecdee8c995.jpg
CrackData/train/269_jpg.rf.f5b2f9dc5631ec53d95b7977341fbe8a.jpg
CrackData/train/530_JPG.rf.a2fac5aba82ca407521f059f6d87c62d.jpg
CrackData/train/176_jpg.rf.c0dedcecee376c12ff683ddbb55dc21f.jpg
CrackData/train/496_JPG.rf.eba61a18d5d0befec210eac7a8b0690d.jpg
CrackData/train/275_jpg.rf.99784516005d65838f312d592ba01414.jpg
CrackData/train/578_JPG.rf.343dbbea2aed51617db9620b978db91c.jpg
CrackData/train/584_JPG.rf.89b1bc5e612c9103c9c4f465bba6626c.jpg
CrackData/train/300_jpg.rf.9d76f1a699beaf7db67d2553e1dcc0e1.jpg
CrackData/train/365_JPG.rf.3c2f8425f8b742d5cda11b595049a36b.jpg
CrackData/train/021_jpg.rf.d05bb810dbc356b585cc641310e2d6ff.jpg
CrackData/train/523_JPG.rf.e6d158d1b7b6b3dd65c18963ab27c8e1.jpg
CrackData/train/439_JPG.rf.a1966bbda98602536dfa300db1a57ede.jpg
CrackData/train/093_jpg.rf.687f71a3e9231b3cb1a8d0e7a2f8290a.jpg
CrackData/train/199_jpg.rf.626b390ad4f9589cacfa894e88cd5042.jpg
CrackData/train/571_JPG.rf.025543367411219542e79ed13baca751.jpg
CrackData/train/412_JPG.rf.b437af83817f32e4184ddb1f9dc44340.jpg
CrackData/train/054_jpg.rf.6412e3d8f7826590d79db7747e07df3e.jpg
CrackData/train/070_jpg.rf.e16eb3321ef0f17d68f863d2337b91a4.jpg
CrackData/train/373_JPG.rf.03f792886b45a28472b16a2acc70e002.jpg
CrackData/train/361_JPG.rf.528fb3e9fb488f0981d7e98d646bb979.jpg
CrackData/train/575_JPG.rf.1b34082056e0bcedb4e1d510b6f327fc.jpg
CrackData/train/559_JPG.rf.770ac171a3cc9e54c39efd7b17dd49a8.jpg
CrackData/train/149_jpg.rf.cef56054a435db4d4f85d5fdf1f40dd0.jpg
CrackData/train/170_jpg.rf.3d44f1b840e7d8cf1b215a12cec9d766.jpg
CrackData/train/324_jpg.rf.f40128cd249eea9773497f8d86d04711.jpg
CrackData/train/105_jpg.rf.56ba05c3e6829b5031f4ab958a994ab4.jpg
CrackData/train/456_JPG.rf.fe75e51eb6946737552cd5696986776c.jpg
CrackData/train/421_JPG.rf.b6ab98faf595f20bd0dccf8571aa4ce1.jpg
CrackData/train/204_jpg.rf.c1c42f80eaf64954adb259e627a54603.jpg
CrackData/train/590_JPG.rf.966c6f113113a625347a40114ab95d5f.jpg
CrackData/train/193_jpg.rf.3244e83bdc54cea3a2d773e4dbb06966.jpg
CrackData/train/250_jpg.rf.3f6d8ad9dd2314152699719ffd0cb529.jpg
CrackData/train/139_jpg.rf.533cee24dc1afed08250c138fee0c8a9.jpg
CrackData/train/102_jpg.rf.79e15dfa7fa114e4bc7ecce1f407dcd3.jpg
CrackData/train/576_JPG.rf.77ab8d2050f459852eb43db2e003b29a.jpg
CrackData/train/170_jpg.rf.9dc39a4e3a81d02220cd77c81d22ff50.jpg
CrackData/train/241_jpg.rf.b7f28b9e72bc14c6811007d35fc9cc3b.jpg
CrackData/train/227_jpg.rf.6434d4aec73d6ed7beabdc9028744fb5.jpg
CrackData/train/100_jpg.rf.ee3458135b8bfa220fcc6d9287cb3941.jpg
CrackData/train/580_JPG.rf.6e3bb2853fba9c1f78f41efb161fdde7.jpg
CrackData/train/514_JPG.rf.bbd623f2d010dae6df8e25e965ed9fe8.jpg
CrackData/train/416_JPG.rf.45f069b498ea6a03f74a206f405e4cd2.jpg
CrackData/train/509_JPG.rf.f3829f0b2a958346ce2dad9a8da6dd5e.jpg
CrackData/train/116_jpg.rf.835b895f333b85556bc32873bbb46159.jpg
CrackData/train/193_jpg.rf.3b7700363045b0ce8c2cfcbcf755d7cb.jpg
CrackData/train/295_jpg.rf.0c762bcc3e57e0d27767af7eccc07763.jpg
CrackData/train/590_JPG.rf.4d9f020efb1cf3347054c46af9e39cef.jpg
CrackData/train/419_JPG.rf.afa05911d55adeda5ab6878e900abf8b.jpg
CrackData/train/019_jpg.rf.8605dd8051bbea5165454504eb8a036e.jpg
CrackData/train/381_JPG.rf.4d9a058a53b08bc243c8c386f7e3a548.jpg
CrackData/train/493_JPG.rf.39b6faf754f245fb98687628eeab240f.jpg
CrackData/train/234_jpg.rf.3cf36ac35e9684918af3f29e1574b3d8.jpg
CrackData/train/295_jpg.rf.a1d7d504756c70ef1e8a2f5dd59005ca.jpg
CrackData/train/199_jpg.rf.5d737439c5f316ee28396871c3aa1077.jpg
CrackData/train/573_JPG.rf.e36b5148efe88c51a06426f1cf2a626c.jpg
CrackData/train/369_JPG.rf.80b01d5e7f49547ac1a2a92ef409d652.jpg
CrackData/train/273_jpg.rf.76c7cf26ad62872468d96a6b08e099cd.jpg
CrackData/train/454_JPG.rf.72bd800c17e8fe8fbc25ef35da96842b.jpg
CrackData/train/385_JPG.rf.11b87b8c4ec363731a11f9e2155c1a3d.jpg
CrackData/train/126_jpg.rf.b2cfccab8a557d9b82698a5b4eb6ac5f.jpg
CrackData/train/425_JPG.rf.dde9df8c3815d741b04244c24cac00c0.jpg
CrackData/train/037_jpg.rf.724507f6b2ae132187e0899f904ebd0a.jpg
CrackData/train/283_jpg.rf.c6565be553acc975d826ded23df51b35.jpg
CrackData/train/550_JPG.rf.dc2ee08a1091d24c30188f2f503bda2b.jpg
CrackData/train/482_JPG.rf.8ac19d6dddada6957b29a47fbe8d94f3.jpg
CrackData/train/270_jpg.rf.33636df69fe90205ba7e921183252b5d.jpg
CrackData/train/220_jpg.rf.4d1cf204aaedc88b888832d0a0f8a736.jpg
CrackData/train/229_jpg.rf.833f0d939b657d47bed0e44ec2d1d597.jpg
CrackData/train/247_jpg.rf.b98d30f9f8e7a1fed55cce49233f45ab.jpg
CrackData/train/534_JPG.rf.6aa13b2cda7da9df5972644f72f6146b.jpg
CrackData/train/113_jpg.rf.e2f67fc01fdac8440fe14060167d55de.jpg
CrackData/train/381_JPG.rf.2dba2a4d538c7054bfbf060d095d51fe.jpg
CrackData/train/216_jpg.rf.a064aa7fc870e8bf16e653abb69ae4ed.jpg
CrackData/train/415_JPG.rf.dc644d7196e760f6048f57a73bfb1f02.jpg
CrackData/train/542_JPG.rf.c89701f10aa7f5096948c245312cb4b7.jpg
CrackData/train/376_JPG.rf.e0cbecd42c0b96feebd6b17c6b0ea66f.jpg
CrackData/train/251_jpg.rf.137e2dd2cffa2ab34af754885a04212b.jpg
CrackData/train/062_jpg.rf.2d40f72b7b02f36c378afed38ce7c428.jpg
CrackData/train/238_jpg.rf.2b6a33f2efb6efb7d649cd731baee22c.jpg
CrackData/train/480_JPG.rf.def07521712064fbf793104aecd07018.jpg
CrackData/train/364_JPG.rf.ecbddff0eb1187488ccf6046067bca44.jpg
CrackData/train/195_jpg.rf.9897f5d434584fd30826488116639c21.jpg
CrackData/train/475_JPG.rf.a35e71364d70a1d802249957415f7c26.jpg
CrackData/train/254_jpg.rf.943379b50b622e49701ca518bcca2a2a.jpg
CrackData/train/476_JPG.rf.d516d0db9079da073b98c6c3434bf921.jpg
CrackData/train/179_jpg.rf.f2c4dda86cc8de1f4af42eaaefc01028.jpg
CrackData/train/178_jpg.rf.9c80d6d42bff6d0837b3740b21f05daa.jpg
CrackData/train/289_jpg.rf.b096bb509c585a0e092caed7291caed6.jpg
CrackData/train/122_jpg.rf.2e5c37b0fadead172b41ce9a7a40088b.jpg
CrackData/train/514_JPG.rf.b2f84f46f98b37c4fa8df87382c3b4ee.jpg
CrackData/train/057_jpg.rf.1a5ae09778e49f3d45fd93a72ab79332.jpg
CrackData/train/091_jpg.rf.a6ebf6fc7eea9134f1a94653faf45c6b.jpg
CrackData/train/445_JPG.rf.dddc870ec984fcc742a14379ae9aaa47.jpg
CrackData/train/047_jpg.rf.8271b5fcf9789a9e3b90600ac2676ebc.jpg
CrackData/train/427_JPG.rf.9b2ce1acfaf27bb8c3cdde70c7e1091b.jpg
CrackData/train/472_JPG.rf.01ebb2b31d03493194ebd5a38222a3f3.jpg
CrackData/train/361_JPG.rf.d294a9738ce3b0506429343a665f4d9d.jpg
CrackData/train/045_jpg.rf.d8b2d0a0c756f01dbd1eada90a11781a.jpg
CrackData/train/589_JPG.rf.d7a29e9393fd649ac6667a5120ee1503.jpg
CrackData/train/190_jpg.rf.bb37e5b68f584fa0c4adf0791d84215e.jpg
CrackData/train/301_jpg.rf.e055ba071841791f3931a914effc48c9.jpg
CrackData/train/363_JPG.rf.40412eb78f827f6d73fc75f1ad506f36.jpg
CrackData/train/486_JPG.rf.c7fcdb99a66ab00c57b6267f2f6f638a.jpg
CrackData/train/171_jpg.rf.1b9c647678e148a7d37015a13201726e.jpg
CrackData/train/011_jpg.rf.cd4f3c89875fb46e5127cb94d53a9204.jpg
CrackData/train/574_JPG.rf.e96e3476522e59a5b3066b42ae2160c2.jpg
CrackData/train/145_jpg.rf.4ea28acd5247771bef33bdb2be78a7bd.jpg
CrackData/train/435_JPG.rf.4365676f3df7b8e25d8f64ad634a8241.jpg
CrackData/train/258_jpg.rf.989348424fa0b6c2f6f1a91884ff09d6.jpg
CrackData/train/508_JPG.rf.e38ee4ce3e9f3975fde0851dc5d3a7c2.jpg
CrackData/train/189_jpg.rf.a101bee77e77026b1327e4333a77e9bc.jpg
CrackData/train/146_jpg.rf.9a1191a7e1307387e8e6c21c88987343.jpg
CrackData/train/512_JPG.rf.e9cc734339d8b7fc0b205e8175eb7820.jpg
CrackData/train/135_jpg.rf.03b10617b94f22f85b8d4b11424c6560.jpg
CrackData/train/053_jpg.rf.e842d8ecd2c7508c70534745ed4d7ed0.jpg
CrackData/train/109_jpg.rf.60a9ccab5fac66dbab2d0c1e0dd7d916.jpg
CrackData/train/321_jpg.rf.3fdad51b9369b5603fea209f8f71d915.jpg
CrackData/train/135_jpg.rf.66607e91f78f32c54958ac32085e1f12.jpg
CrackData/train/463_JPG.rf.42df24a9c44179e51049d6cdc5672fad.jpg
CrackData/train/295_jpg.rf.2ebe26e4974d3665d43b426c335878aa.jpg
CrackData/train/407_JPG.rf.df04120adfb0f70decce69254e33ef35.jpg
CrackData/train/428_JPG.rf.31f50d294081443049a08a13e71296d2.jpg
CrackData/train/543_JPG.rf.198cdb756c10d4f360d9f3dff8bd6f0d.jpg
CrackData/train/306_jpg.rf.b317b8a79d021a64beb4da36ddc00741.jpg
CrackData/train/509_JPG.rf.65f60346edf906f7db07ac728a464354.jpg
CrackData/train/267_jpg.rf.b453676b07729a78cfa80511ea4b0a68.jpg
CrackData/train/253_jpg.rf.1b0cb634737b8da4cdb029cf1b305493.jpg
CrackData/train/259_jpg.rf.d5719c8dfee984ef2f39c5ed24778130.jpg
CrackData/train/217_jpg.rf.e5c98782c36a2d3143e261583d052da0.jpg
CrackData/train/530_JPG.rf.44c59ca410a3fd9d02657ca872a1a6ca.jpg
CrackData/train/105_jpg.rf.c22bdf0ce2e4409c9257d3d7037c588a.jpg
CrackData/train/465_JPG.rf.c1a303c942a6db7c0e3fc23851676e39.jpg
CrackData/train/247_jpg.rf.7ac23b55265e2483258a974bc261dc27.jpg
CrackData/train/169_jpg.rf.b5f8c1b7935e9a32d2c4f5ae30ebb576.jpg
CrackData/train/457_JPG.rf.a398ddd166bec33fe6595da4230272c9.jpg
CrackData/train/051_jpg.rf.5ce94e8df73caf58c610c892a26723f8.jpg
CrackData/train/289_jpg.rf.9b0af73fae07f9a70bc0f72fbdf43365.jpg
CrackData/train/069_jpg.rf.e87ddb7aafd42d2f0982cd036996f45b.jpg
CrackData/train/121_jpg.rf.81b2a922959e88e206c594c5399d502b.jpg
CrackData/train/192_jpg.rf.3eb71081ec505cb64d5a1026d3529dea.jpg
CrackData/train/289_jpg.rf.b51781ac8468ff68675f086adea969cd.jpg
CrackData/train/380_JPG.rf.73dfb40ab2b741ac22b4b9cae62c1b32.jpg
CrackData/train/246_jpg.rf.b869bf4fe7715615c124a8151df9aa0c.jpg
CrackData/train/357_JPG.rf.eeed2f439f51fd6b1d2249e6b5b65fc8.jpg
CrackData/train/139_jpg.rf.4bb5d57c111668f33f39a815ea534e1c.jpg
CrackData/train/470_JPG.rf.057813fd5edc1e7b3fa6a66c6b4456c5.jpg
CrackData/train/120_jpg.rf.cbf3e9ace8c4fcb56f155c01a193e210.jpg
CrackData/train/527_JPG.rf.83d44c3d1726f1ebaacd71d7f78c4a41.jpg
CrackData/train/480_JPG.rf.fea2975a814eafa56f59734dd6381466.jpg
CrackData/train/112_jpg.rf.b2a5bb98ede5f613d7db1404532996ad.jpg
CrackData/train/239_jpg.rf.c1bd9388db29245ffcf759f81d4cb8c1.jpg
CrackData/train/500_JPG.rf.2a9df7cb81e544e105dc4eec67ea1c2e.jpg
CrackData/train/402_JPG.rf.ffe09bf0522b2fcd4f736235e8d4d468.jpg
CrackData/train/144_jpg.rf.67f78b1f6bea29f25a847a839d61febc.jpg
CrackData/train/171_jpg.rf.e1a4c51b23f84f8366baa1b709861736.jpg
CrackData/train/357_JPG.rf.85a2d4c46cc5d95d9c6b48925d40792d.jpg
CrackData/train/360_JPG.rf.12b1ed7889e8edcb9abb8c543ebec1c7.jpg
CrackData/train/227_jpg.rf.0e56e100c83b573a9d84694864bcd17f.jpg
CrackData/train/460_JPG.rf.52ce0b85f041a99aa53c50feeb9f7543.jpg
CrackData/train/284_jpg.rf.d1dfe5aca82d2945daad2603c51fb60d.jpg
CrackData/train/521_JPG.rf.81d430d539d0b2a010742177047dc8d0.jpg
CrackData/train/078_jpg.rf.a5fa87757c446f6bdbf1edd1f3356f3a.jpg
CrackData/train/528_JPG.rf.90de61fb85d09c8fd051587eeb6f667d.jpg
CrackData/train/267_jpg.rf.5efdb76629b8fcdf899263ad8d6d13d4.jpg
CrackData/train/516_JPG.rf.c7042772e7961742bd6e2c3c553770fc.jpg
CrackData/train/573_JPG.rf.102c09bb857220dbc82503a41ebbe0ba.jpg
CrackData/train/427_JPG.rf.35ddbb917ba0462ede125895c932f689.jpg
CrackData/train/582_JPG.rf.972d8e4aab670304a0085cd1b9b8aa82.jpg
CrackData/train/191_jpg.rf.21c6bb6aa653f38b6c6bd2db1ff1a69e.jpg
CrackData/train/521_JPG.rf.7eaf4d58f4b21792a4c050f0744134d1.jpg
CrackData/train/191_jpg.rf.5a674909f07e8a9e4b48596dd0c4c341.jpg
CrackData/train/059_jpg.rf.77cd347d8de2bff224e16a682a138c82.jpg
CrackData/train/281_jpg.rf.65d79c235f493a32d3169aa907706c9a.jpg
CrackData/train/167_jpg.rf.ddcd040720fcba78a25c5887809acf92.jpg
CrackData/train/026_jpg.rf.02dd58ddd0f6535d703466d301c85357.jpg
CrackData/train/201_jpg.rf.d3d0a16b999a36cbdb535aaf76812a12.jpg
CrackData/train/274_jpg.rf.13544cff284ed3f411cff2433614e895.jpg
CrackData/train/542_JPG.rf.9389105c3422cdeb8290686f752f9786.jpg
CrackData/train/247_jpg.rf.0cdace02d60566592af6eb9304e50cfd.jpg
CrackData/train/576_JPG.rf.eefbe57b1102c63b177347a6f25c9a6f.jpg
CrackData/train/436_JPG.rf.4e5301518e42422e60b910f20044e9f6.jpg
CrackData/train/117_jpg.rf.022f24eed003b22851f778d8b3131c49.jpg
CrackData/train/080_jpg.rf.8dc787752f89abd3d178e9ae98b79635.jpg
CrackData/train/280_jpg.rf.19084012052579ff27c1a756d9952e08.jpg
CrackData/train/562_JPG.rf.53b434e4bea901e2298f493cccc2f6ff.jpg
CrackData/train/523_JPG.rf.e22b4e09e54190a737a63fd721677c61.jpg
CrackData/train/021_jpg.rf.928faf49cf396e697cf1e3a66b9ae7d9.jpg
CrackData/train/284_jpg.rf.25901e9ca2b5707fa67a9f1e6b406d50.jpg
CrackData/train/095_jpg.rf.b8541ab823540cb7a4e3152371acb760.jpg
CrackData/train/040_jpg.rf.4955999a3acd2a3158db3517364b7887.jpg
CrackData/train/174_jpg.rf.be413f64d32c70c24ecdf213b4d62d36.jpg
CrackData/train/105_jpg.rf.2631ac0b917ba781ee83528d93010f39.jpg
CrackData/train/434_JPG.rf.8626d98499f1b171dac73b3e3f1e83c7.jpg
CrackData/train/549_JPG.rf.d32afa233bb2298ca8de2ceae2614818.jpg
CrackData/train/501_JPG.rf.af0bf4194bdeb78e12f528a8bc3e67db.jpg
CrackData/train/260_jpg.rf.1e0980c185d7726ee624bfbe051d09c5.jpg
CrackData/train/243_jpg.rf.f8c5c6b635496699478ee572193a1964.jpg
CrackData/train/070_jpg.rf.74ede7e46ab226be9ff66bd98a526d02.jpg
CrackData/train/231_jpg.rf.e2e162c08c08fee1b1dd488932aeb561.jpg
CrackData/train/533_JPG.rf.630feca3d63fed4141bc48ffc4105baf.jpg
CrackData/train/580_JPG.rf.88b287bbfaaf228025f03101daa904a6.jpg
CrackData/train/436_JPG.rf.675a4b2c43dcc7c5b863141a5caecbf6.jpg
CrackData/train/178_jpg.rf.098bd26e70d710915572d1f820187c99.jpg
CrackData/train/049_jpg.rf.c704e69dc39bd43080e8fc95e3b5b7a7.jpg
CrackData/train/454_JPG.rf.fa3a8359674bc9f45bf294c2902207bc.jpg
CrackData/train/039_jpg.rf.960d925330998489ff0a2ac7a99480a3.jpg
CrackData/train/285_jpg.rf.12b2e0641dd6060a17ff446dd576a3f5.jpg
CrackData/train/207_jpg.rf.8c8013759f7e40d7726094a986671fb0.jpg
CrackData/train/454_JPG.rf.20df99fd4c7c54e15f7eee123d225a91.jpg
CrackData/train/128_jpg.rf.468a71dd7c80c82e46bc2eaf6573be81.jpg
CrackData/train/252_jpg.rf.4a54ca24b8202b3ab85cd6dd67643163.jpg
CrackData/train/536_JPG.rf.ad36fd8572a87d21fcfea102d2c361d6.jpg
CrackData/train/566_JPG.rf.f8e07bfc8f7951748f7b340eed79d120.jpg
CrackData/train/566_JPG.rf.6fa14bb73dbcbd86744702f68ea83b97.jpg
CrackData/train/137_jpg.rf.582316cd021e06f06d31b2a50ade4563.jpg
CrackData/train/413_JPG.rf.eea8701a896258eb4f4b212216f2ee85.jpg
CrackData/train/485_JPG.rf.3bff4119f2c9581eab0dab523dcaf806.jpg
CrackData/train/245_jpg.rf.9def0f8a7f3d03dad6d99bb70a8b9f50.jpg
CrackData/train/243_jpg.rf.b07ceab49e60412a973e8ab0eb070e3f.jpg
CrackData/train/421_JPG.rf.54df908979f346588531b069800cd537.jpg
CrackData/train/412_JPG.rf.e41451a1294ae9c160025cc338a2eb21.jpg
CrackData/train/403_JPG.rf.0eeefee227c8a0cb4a815143f87308e5.jpg
CrackData/train/425_JPG.rf.3a672dfc026a719aa779f716e5dc6ff8.jpg
CrackData/train/385_JPG.rf.ca53245864fa526cbda5064bc151c0e9.jpg
CrackData/train/280_jpg.rf.6fba2d110f97d9495187e3e0183ce319.jpg
CrackData/train/215_jpg.rf.13e0d1d8e907d85f7742d23416f12f1f.jpg
CrackData/train/061_jpg.rf.a004c2d8fd38b4d31075610e58f75635.jpg
CrackData/train/032_jpg.rf.7f1a0e57dca7547a640bb032524690a7.jpg
CrackData/train/509_JPG.rf.a689795eb3a6e08b74d7f500d21d2778.jpg
CrackData/train/248_jpg.rf.88dffc9bb2230d7832cf2a85c90f4112.jpg
CrackData/train/300_jpg.rf.35b943e7faead9b9e0c0e45f68473cc4.jpg
CrackData/train/062_jpg.rf.5760bd5999b75725ff2f225433ceb98b.jpg
CrackData/train/571_JPG.rf.aafc890ade749e18e5fbe679b78e1543.jpg
CrackData/train/554_JPG.rf.c56f80751a4b587d750e0257386746d4.jpg
CrackData/train/041_jpg.rf.690624c9b8ad51ede7fdd6ec2356f487.jpg
CrackData/train/068_jpg.rf.3cf168c10798e890beb51cfc7556e503.jpg
CrackData/train/300_jpg.rf.074d19bcddb86e4ab0e1ff54e01a8b36.jpg
CrackData/train/017_jpg.rf.e9de4022399fa7e65b7f18b990d0850b.jpg
CrackData/train/446_JPG.rf.f9b35dafeba5c4a77b828a4e197cc2b8.jpg
CrackData/train/283_jpg.rf.452c3f14337779edd1c3de1e00c253ac.jpg
CrackData/train/543_JPG.rf.b5cbf56b98d9f22ea317fcf432271a0f.jpg
CrackData/train/271_jpg.rf.060cc3810e971033699ef2063cab2534.jpg
CrackData/train/129_jpg.rf.4b4072e635af235402f56cd02d838e8a.jpg
CrackData/train/271_jpg.rf.ebe2a713033d48074a0b067d3a234609.jpg
CrackData/train/455_JPG.rf.46e5e3e564fb85157e3bf3898698283b.jpg
CrackData/train/068_jpg.rf.5138633e8c8051dc2156e3b6bef15248.jpg
CrackData/train/293_jpg.rf.87dd9dbb9c187b0e0dc6d0b8d751b567.jpg
CrackData/train/321_jpg.rf.8994ee901442470c2be5d487cd794743.jpg
CrackData/train/536_JPG.rf.13e3e5638473cc69dbf8f3388e0c8790.jpg
CrackData/train/504_JPG.rf.976d06940202d475c09e9aa7cd356866.jpg
CrackData/train/216_jpg.rf.be4759f294a474e3f4f7e4f342754878.jpg
CrackData/train/284_jpg.rf.7dc7a859a3718866343f8ebdd1d4e77d.jpg
CrackData/train/217_jpg.rf.0d78dfbf6f1f4f69db4d10321a0cb7e3.jpg
CrackData/train/572_JPG.rf.eb4e882ff39f885bef8d81c826dbce5c.jpg
CrackData/train/513_JPG.rf.d01ae6aeb746ca5dd2157c852737cf54.jpg
CrackData/train/458_JPG.rf.813ba1d9e2dad90d7f1e62785e952fe3.jpg
CrackData/train/437_JPG.rf.2944bbd3883a6ce088780bd67552160c.jpg
CrackData/train/455_JPG.rf.9f161aa845a14a2c158b9d1e21c46461.jpg
CrackData/train/276_jpg.rf.5fb603b4dee1e9871c5935c6a9249678.jpg
CrackData/train/425_JPG.rf.6b291564f17404740faa6495ddd3ad0d.jpg
CrackData/train/288_jpg.rf.dd4cbdbebda741f2b8a459841d68b60e.jpg
CrackData/train/011_jpg.rf.4d48867ea238a0f7d2748fdf7a25cd9c.jpg
CrackData/train/497_JPG.rf.e701543d6bc19221a7bcbcbf1493f543.jpg
CrackData/train/204_jpg.rf.31f087d55119902468f2d1521ea10462.jpg
CrackData/train/488_JPG.rf.8b1dd2b59fcd30fe2a32e5240ab2ae7e.jpg
CrackData/train/436_JPG.rf.6d8a42779c1fcf03a3574b84b50136a1.jpg
CrackData/train/242_jpg.rf.b290665f176fa62680ad4d3d5955e487.jpg
CrackData/train/259_jpg.rf.6b83afb8ee86175c4a4a6cbc5d0255cc.jpg
CrackData/train/406_JPG.rf.6ab843cc27d184f99b3609525907acfa.jpg
CrackData/train/290_jpg.rf.5f597c716444fc7690499b6e7a4e230c.jpg
CrackData/train/179_jpg.rf.c4b0d1ec661bf152c2d63fc343f68516.jpg
CrackData/train/025_jpg.rf.08938ce6c4e01e05147cbf2ef98d6ff2.jpg
CrackData/train/412_JPG.rf.8e8c5ce89c47d8de10ff1c9c1f272074.jpg
CrackData/train/533_JPG.rf.e093fb70cf082f14458e710159a44ea0.jpg
CrackData/train/114_jpg.rf.2356d5afa46c97b671029e591fc3848b.jpg
CrackData/train/542_JPG.rf.0a592e4abdf56dc720f5942411ae0686.jpg
CrackData/train/111_jpg.rf.9291ab5f58e10618975f0d1dbd561e0e.jpg
CrackData/train/201_jpg.rf.e90d804c93264129dd96e87baf6cfa20.jpg
CrackData/train/050_jpg.rf.12ee4b171e3e1c147fbbe86cf16cc4c6.jpg
CrackData/train/039_jpg.rf.24290619d1c716ca4eccd02bd2a626e7.jpg
CrackData/train/183_jpg.rf.bfeadf170bcd8572f14c8813879c7bea.jpg
CrackData/train/465_JPG.rf.b4239b4d5c022fbf60cfb6751c2c1689.jpg
CrackData/train/551_JPG.rf.47906cd67b6964eb30f534cf9d74480b.jpg
CrackData/train/169_jpg.rf.441eb9fce136330c143df0f08eddcbc3.jpg
CrackData/train/282_jpg.rf.86bc874e22e19e0f5eddbe26ad83673c.jpg
CrackData/train/362_JPG.rf.3b00d9e6d972ca799b32ecf6050819e2.jpg
CrackData/train/111_jpg.rf.ee90b841608ace29210eb32e5d085a2b.jpg
CrackData/train/480_JPG.rf.0f9090d0d2ff45e6c6d41f5c752cc7d5.jpg
CrackData/train/250_jpg.rf.2b259ec6d5d623a01b312a31b23a39f4.jpg
CrackData/train/550_JPG.rf.da6651fc25217edcbff5648be1c899b7.jpg
CrackData/train/119_jpg.rf.48dc25044ed2101c546cc6402a646b6c.jpg
CrackData/train/579_JPG.rf.3d6f269ae0c142c1d89c0b8bc6d04754.jpg
CrackData/train/275_jpg.rf.eea614adaabb3b0c3afdd9524bc484f0.jpg
CrackData/train/024_jpg.rf.8615b99f0e7d4723814fa1f0d48667da.jpg
CrackData/train/402_JPG.rf.e5e16a028ca264286bbcce10bfc402e9.jpg
CrackData/train/029_jpg.rf.6373803c7105a86a5b0def17bd4dbe6d.jpg
CrackData/train/496_JPG.rf.8597df4b62cf955d34144449bf80cb09.jpg
CrackData/train/171_jpg.rf.930fbb06744f9127675826152dd2d812.jpg
CrackData/train/090_jpg.rf.1b9a856377645c7318861a0144a5e0d2.jpg
CrackData/train/150_jpg.rf.c746bb65a15762c5fabafa84803319df.jpg
CrackData/train/089_jpg.rf.e98a5cb97f971c4a22abf53614037f9e.jpg
CrackData/train/445_JPG.rf.01396aab917e6d621268f7c03937946b.jpg
CrackData/train/546_JPG.rf.e82c57f8f8ffc2800fc1a2c93212171e.jpg
CrackData/train/276_jpg.rf.eafa226f326c3cbfdbcb0786fc71e102.jpg
CrackData/train/407_JPG.rf.b3a0746537acbb0a01c6399794b3ca1d.jpg
CrackData/train/221_jpg.rf.ed073ca2ab403a92a04512e1f412fd0e.jpg
CrackData/train/293_jpg.rf.a4e86da953f7ac715bba3e320462d5cf.jpg
CrackData/train/546_JPG.rf.21583a6b4b4169412471829beda5e44a.jpg
CrackData/train/210_jpg.rf.a66958ccd5c596fa6ca0dadfe5108b48.jpg
CrackData/train/093_jpg.rf.1fe8fad8a1d863823d9a865380cb99a4.jpg
CrackData/train/024_jpg.rf.aae2e08dceede5c13062c4549af1cfc7.jpg
CrackData/train/248_jpg.rf.fa8b059ed2261d004a629dcd8f9f22d7.jpg
CrackData/train/225_jpg.rf.7adec4da1d024cc46614e74188b7760a.jpg
CrackData/train/587_JPG.rf.47d02ba6ec7cc7043f711253f695b98c.jpg
CrackData/train/275_jpg.rf.b3b2917a2c38828b1c56fc8aa2c8e182.jpg
CrackData/train/234_jpg.rf.7ee568e208ecfa173cdcb010a0766437.jpg
CrackData/train/083_jpg.rf.7ca609509732d6d1ddd9144e1b6155d0.jpg
CrackData/train/522_JPG.rf.9891e6e0bda3334ab667839c5b5e4fd5.jpg
CrackData/train/506_JPG.rf.b781e058f1ff13d6e9206b5d70f37570.jpg
CrackData/train/260_jpg.rf.15343dea374d1b1d7f119c302f3416db.jpg
CrackData/train/488_JPG.rf.f8981a5df21ccce3536edc7504925812.jpg
CrackData/train/060_jpg.rf.2cefcea85c4d8ec97de30ec3f3afbf90.jpg
CrackData/train/506_JPG.rf.d373bf4f572b6b94fd33b16585788a74.jpg
CrackData/train/100_jpg.rf.df133fccb99f6992b6777b739cb17a1d.jpg
CrackData/train/143_jpg.rf.6ccb3032a58ee3ccf121b5d90e6b8560.jpg
CrackData/train/236_jpg.rf.86a5afc2103ecf606057382911e1851b.jpg
CrackData/train/192_jpg.rf.2b51aa5ac7a116a872825b9c620bed8b.jpg
CrackData/train/114_jpg.rf.60e620e1daf5c0f45706f82713168a9e.jpg
CrackData/train/084_jpg.rf.cdb2dfac3c41d2e7f1a71394623cdd5c.jpg
CrackData/train/118_jpg.rf.bb0fde72c2ac4358bd51706bf7d89e51.jpg
CrackData/train/001_jpg.rf.a4a6ea58d9a5ad083aef6c9c0753c407.jpg
CrackData/train/221_jpg.rf.806d84dc080c4ec92904503ee2318bcd.jpg
CrackData/train/460_JPG.rf.672a7c2923929b6969a180d64895e09a.jpg
CrackData/train/058_jpg.rf.e1d5be5d8159267cc93e5f5b23b7914d.jpg
CrackData/train/562_JPG.rf.3be35050cab99a0e174ec2e49a0f2d80.jpg
CrackData/train/383_JPG.rf.f28787f439b350cd22cf1335cd7deae1.jpg
CrackData/train/500_JPG.rf.43f5e3b47fdad14abcfc49f284d7f2ee.jpg
CrackData/train/168_jpg.rf.f5e83c7b47e7f91d37e1709745140aba.jpg
CrackData/train/579_JPG.rf.ced4731c60becda0bd9e48eb81732da6.jpg
CrackData/train/211_jpg.rf.b3c590856a1f9afd7c7863415fd15079.jpg
CrackData/train/513_JPG.rf.e2bbf018ac0cf7e8134220151cee6a7d.jpg
CrackData/train/114_jpg.rf.35f92c4ae697bcf0f24a01769b50fae0.jpg
CrackData/train/238_jpg.rf.af176b1be3d8fa96659c68b9cabf5e48.jpg
CrackData/train/277_jpg.rf.9a81926c3ef1832da7e812391206b18b.jpg
CrackData/train/446_JPG.rf.b23d6dee6a86147ce2ee5c4daf83bd30.jpg
CrackData/train/448_JPG.rf.dd79551a7904d5c527536267d6b8a2e0.jpg
CrackData/train/102_jpg.rf.a84df4728936e88787701a6ac4679136.jpg
CrackData/train/149_jpg.rf.d61c1828c2604ce1e2919a7fe17e2f34.jpg
CrackData/train/190_jpg.rf.64c83b664ecc701ca0f3110bd1ebf0cc.jpg
CrackData/train/040_jpg.rf.669745bf11fad8fd1ab7e17d0be0c9fb.jpg
CrackData/train/035_jpg.rf.d69f91ea59b729a470624988ff33dde6.jpg
CrackData/train/433_JPG.rf.37d0bdc5bd129b922da37aeb53d11eda.jpg
CrackData/train/241_jpg.rf.be58635e1f3acf851a021539af253014.jpg
CrackData/train/023_jpg.rf.0e82ac8634feabe4bdbffa81d6ba25f8.jpg
CrackData/train/278_jpg.rf.62f8ab75a55599e12b917ef5484cd390.jpg
CrackData/train/578_JPG.rf.c30a17beefa8b818e77ac4e80411fb0e.jpg
CrackData/train/227_jpg.rf.ad7bd71c811c7091ab477fddc8bc3e8f.jpg
CrackData/train/362_JPG.rf.9d1f5a0a620b3014cf4432b3125d4815.jpg
CrackData/train/239_jpg.rf.b486ea8969e4460a5b64e1f09bf55b34.jpg
CrackData/train/177_jpg.rf.453c0c9f8e627b7ccd858bc0ea71e4c7.jpg
CrackData/train/188_jpg.rf.652c5d142b20c39861224ec8ebe291fd.jpg
CrackData/train/090_jpg.rf.b76ef149bb266266898f3c469a2b0093.jpg
CrackData/train/297_jpg.rf.973761e67f3b3a908b8178abe75c605f.jpg
CrackData/train/452_JPG.rf.8e9204171029724e191d4be118143178.jpg
CrackData/train/403_JPG.rf.0ccaeca2a20c5ee3d14683b96375d0f0.jpg
CrackData/train/584_JPG.rf.3460590953daf8a0f7bc9261922fef7d.jpg
CrackData/train/047_jpg.rf.9d06a3e260e1bb6b14510cdfcb1333b2.jpg
CrackData/train/558_JPG.rf.258839f020107dca4ef426a6ca03094c.jpg
CrackData/train/278_jpg.rf.fb9311f57df1ca1a8d061e1fef1f7e1d.jpg
CrackData/train/405_JPG.rf.0685890555eb1d44aac29c54a02cd25a.jpg
CrackData/train/079_jpg.rf.0422183e5dd0b7efdab2950cd63bc8c1.jpg
CrackData/train/487_JPG.rf.3c814146f7bdb9707d0d020794abb5ee.jpg
CrackData/train/449_JPG.rf.3f75a903b863304e05a76e35a9858d1b.jpg
CrackData/train/059_jpg.rf.ff3106bdd285eaec2dc2e3cf3339a720.jpg
CrackData/train/083_jpg.rf.08d328c78016e6f63c7a3fb959867ac2.jpg
CrackData/train/490_JPG.rf.53ebb98c3454a62696e4febc9a067c6d.jpg
CrackData/train/075_jpg.rf.1b3af1b674d568872d35ec74008d0309.jpg
CrackData/train/187_jpg.rf.c0de9c453bd9642104b401eaac6c8d91.jpg
CrackData/train/568_JPG.rf.77ee3e485f0a8895dfc432512805e6ec.jpg
CrackData/train/558_JPG.rf.1225f8ba4974e2f6e306ad60f1f164f2.jpg
CrackData/train/548_JPG.rf.89f6ed183c66ebdd303c4314afcc52fd.jpg
CrackData/train/128_jpg.rf.e5c5b46fa03084a9a48b6b3f49adae6b.jpg
CrackData/train/253_jpg.rf.8568758befbc1f5f65e44ad54c3962fe.jpg
CrackData/train/445_JPG.rf.70ba4ad740357ea284d08615d0b2f32e.jpg
CrackData/train/100_jpg.rf.11f70601822475f0f4efd151ac59a82f.jpg
CrackData/train/459_JPG.rf.b3c57b3db8222c6f832dc33d244a41be.jpg
CrackData/train/447_JPG.rf.0d6b70149dcec40eff95fe888a9e6d9a.jpg
CrackData/train/069_jpg.rf.29bbb1b20068c3a60c51cc0878458c68.jpg
CrackData/train/094_jpg.rf.a1593d1d5cf5660efa5cdf0edbb6c891.jpg
CrackData/train/145_jpg.rf.a38e99d4ba306c8748ab62c60da80c24.jpg
CrackData/train/172_jpg.rf.4a5a17a3baa7f0b7dccaf49f7b0ddc34.jpg
CrackData/train/537_JPG.rf.fc2dae316e723427c4020e1448ba1128.jpg
CrackData/train/203_jpg.rf.497c392e14d1ece61aa8bae516ad2231.jpg
CrackData/train/028_jpg.rf.b8d85efd48b92f273404fa217954e5bc.jpg
CrackData/train/323_jpg.rf.72010796f53d12ec26f992c6dde0d020.jpg
CrackData/train/060_jpg.rf.6444ce3f80a286e8a5282b91352189c3.jpg
CrackData/train/577_JPG.rf.42e3a693333c9d83d5f1356e29d20a91.jpg
CrackData/train/213_jpg.rf.4396e7cb83306fcb0503bfe189a30627.jpg
CrackData/train/359_JPG.rf.b74f0cb198030399f3e0554216a67d45.jpg
CrackData/train/196_jpg.rf.552e6401d96c924ce5b08f077534abda.jpg
CrackData/train/517_JPG.rf.1ccec060b5fda0f3735b5fdd11abf977.jpg
CrackData/train/515_JPG.rf.071d9b6cc577f54f4891ef58afd7cd8e.jpg
CrackData/train/213_jpg.rf.a94f53c8fa8f7e317e1cec28fc4e46e5.jpg
CrackData/train/498_JPG.rf.ce3a0084f4b19e5eeb2c4615c75ff9a3.jpg
CrackData/train/426_JPG.rf.e13c7427f9a65899e49fbf42d371bc5f.jpg
CrackData/train/579_JPG.rf.221882eea3c04b7930024bd70534f4f7.jpg
CrackData/train/035_jpg.rf.b1a8a33cff9915051987e1db96587e94.jpg
CrackData/train/096_jpg.rf.011e2e3b8871c95d6383ce6e1c93e08b.jpg
CrackData/train/274_jpg.rf.43e4349fdd25966c2d9ff075a091ba0d.jpg
CrackData/train/549_JPG.rf.06a8dddda8db2c6162409163a550535b.jpg
CrackData/train/176_jpg.rf.606cf0c47b56b4e51cf99d2e09680872.jpg
CrackData/train/568_JPG.rf.b3a432adbe93b7eec7a9df62c0cfe725.jpg
CrackData/train/559_JPG.rf.ae623e75952b01662060745fad54a556.jpg
CrackData/train/262_jpg.rf.cfff843bb4a65ff3e3572fe7e4f28a26.jpg
CrackData/train/249_jpg.rf.3725d397675d7c6c462325d623c77e1a.jpg
CrackData/train/168_jpg.rf.6637470af7b2742cc0820e01eea421fe.jpg
CrackData/train/150_jpg.rf.b2b11b4189b6b45c7f46b6effbd72374.jpg
CrackData/train/577_JPG.rf.58160725bf9e6e367e9a8cec2e52de82.jpg
CrackData/train/082_jpg.rf.106b1f89a5f7caf4a1a51f3af1f4a73f.jpg
CrackData/train/045_jpg.rf.d911dea951051167e07d871704a3c2d2.jpg
CrackData/train/232_jpg.rf.48d6c56cc419fa68b4c51d2b49903bdd.jpg
CrackData/train/143_jpg.rf.0e13fa6804158bb7bd291e9292e59379.jpg
CrackData/train/368_JPG.rf.e693178dc80103172f871b5b1c20125b.jpg
CrackData/train/517_JPG.rf.3d01f027403e02985c4a2a47519baf04.jpg
CrackData/train/521_JPG.rf.5e44dc77ceb30a923b0245c765a4decf.jpg
CrackData/train/218_jpg.rf.2f6a311b0d90d21b59c18d468274cb0d.jpg
CrackData/train/419_JPG.rf.9d6c0331cd6d619976c2f0835e83f096.jpg
CrackData/train/451_JPG.rf.116a3ceed1f3ff156e99c3563aa5cfc0.jpg
CrackData/train/107_jpg.rf.7791699b03d2d8733768999445697fe8.jpg
CrackData/train/048_jpg.rf.9a94c3728ed8cad99d42b180d810f7c6.jpg
CrackData/train/106_jpg.rf.3a60d03d51701f4dd502caee0be14ef4.jpg
CrackData/train/251_jpg.rf.e24657598a2521adb42d6a1f42802b0f.jpg
CrackData/train/134_jpg.rf.19a60e21ad1e930ebf0091dfcb0c6c72.jpg
CrackData/train/254_jpg.rf.1b7a78b61cb7e737518204f055f23d4e.jpg
CrackData/train/017_jpg.rf.ca6757a100c299fd509f2c1c256fad40.jpg
CrackData/train/246_jpg.rf.9819b218aede478a711ad9220626de59.jpg
CrackData/train/141_jpg.rf.c839550072ce18f6eb25d1857b74fa46.jpg
CrackData/train/324_jpg.rf.5e3df7a5f29204b424c9d7165b5252ed.jpg
CrackData/train/501_JPG.rf.427dbb17f2abd21dea24903ec9b0c28b.jpg
CrackData/train/374_JPG.rf.c17b175a8895351422d610a99d8ba2d2.jpg
CrackData/train/384_JPG.rf.b9440f2ef0a53e6ba3059b01701846e4.jpg
CrackData/train/571_JPG.rf.eb6b2a4a393ce8b8ec71db55e63eb9b1.jpg
CrackData/train/236_jpg.rf.dde779b230b59bec09a68dbba925ae5b.jpg
CrackData/train/587_JPG.rf.2c45b8498efeac4a83a751af10c63649.jpg
CrackData/train/522_JPG.rf.34463ad7255681c1ba08a42cc110cb07.jpg
CrackData/train/501_JPG.rf.1113cf598676644228adad0b1accefaa.jpg
CrackData/train/036_jpg.rf.8981fe6f7b67ae3452ddfcd2fe2472a2.jpg
CrackData/train/526_JPG.rf.0a21166dc2bb2898f0e38c4e0e9e05b0.jpg
CrackData/train/537_JPG.rf.3af86853be63f107cf64ca9acfc4aba7.jpg
CrackData/train/552_JPG.rf.276d5796de566c91beedccad8970f8ad.jpg
CrackData/train/468_JPG.rf.25975766881f57242b65113cd3e62e0b.jpg
CrackData/train/189_jpg.rf.f537abe66d77b01448a54dc02b5e58c3.jpg
CrackData/train/416_JPG.rf.96fadd3362a7427a1e224e37ef17f058.jpg
CrackData/train/225_jpg.rf.83e2daebff9779b5c95cd0c463d21032.jpg
CrackData/train/479_JPG.rf.f75ecbb44dd5b225d01a5b294d2de26e.jpg
CrackData/train/229_jpg.rf.f29873ef92738b9b9c35235f5fa864cf.jpg
CrackData/train/049_jpg.rf.8f2d5fb2c99a6fe4483454c356ea885c.jpg
CrackData/train/288_jpg.rf.2d5bc1eab8953d97d62551f22477748f.jpg
CrackData/train/541_JPG.rf.c05abbc79867c6653f2a56a6fb4dde75.jpg
CrackData/train/150_jpg.rf.8e1a9412e4bdca295ffea3f96e2d976f.jpg
CrackData/train/116_jpg.rf.a36a128f736755f87054583ae6aa514e.jpg
CrackData/train/029_jpg.rf.75e377b0e68c9ba3bbee67f4e0bc51f0.jpg
CrackData/train/083_jpg.rf.5f9af89d7ceb9e10ce729491e2517092.jpg
CrackData/train/137_jpg.rf.5d2f2321321eec314d46cc9318307398.jpg
CrackData/train/242_jpg.rf.efec4277e4e13e4602c6084cd7292890.jpg
CrackData/train/206_jpg.rf.1a2ff45bf1de45586e0c5f43cbbce3a1.jpg
CrackData/train/218_jpg.rf.55886a01bb62ad0267dcf47f8ef72697.jpg
CrackData/train/217_jpg.rf.c4dc19e87ec8a3b97c170e8afc260001.jpg
CrackData/train/206_jpg.rf.cac9c3c27e57d8b586ba60dc18ab83cf.jpg
CrackData/train/109_jpg.rf.551048e65e89166238aaf68e7a96e498.jpg
CrackData/train/215_jpg.rf.170ce9551fb993a4b5d3830722601532.jpg
CrackData/train/120_jpg.rf.91dc9d8f1e5335f0cbce15dd476da6a0.jpg
CrackData/train/087_jpg.rf.5720d0af6da764623c806981e92d2b18.jpg
CrackData/train/051_jpg.rf.08adbabc633b10a1634147dfbc11f66b.jpg
CrackData/train/231_jpg.rf.70405e6411d4ada1930da69a71eee09c.jpg
CrackData/train/550_JPG.rf.091a77a61996316374ea70ebd04cd597.jpg
CrackData/train/223_jpg.rf.e109537594118aa2be79f4907d52b69c.jpg
CrackData/train/483_JPG.rf.d11b3bc0ad1612162e7a82345f8e6730.jpg
CrackData/train/129_jpg.rf.a1b42aeec71cb6b1cc7074c8d7b6d9ae.jpg
CrackData/train/181_jpg.rf.b690b093168ff12850974392c059893c.jpg
CrackData/train/491_JPG.rf.1e2beb0074e4d4e898a2288830e25bc2.jpg
CrackData/train/472_JPG.rf.7a359c886ba897313ede7c8849b52169.jpg
CrackData/train/081_jpg.rf.2f65cfd265fa51bcd22887d1fb1178ee.jpg
CrackData/train/537_JPG.rf.2c40ab2ed1048a0c9dadb3f22c5bb9f6.jpg
CrackData/train/189_jpg.rf.080bed3b00bfe065342c94fcb312f192.jpg
CrackData/train/280_jpg.rf.431da688e4c7f5b66ff5fd200f94f877.jpg
CrackData/train/534_JPG.rf.6b22c1def6f9d3d461af0b4f1eb8fb9a.jpg
CrackData/train/491_JPG.rf.e4b9f6f15683acd855a58170ccadf0be.jpg
CrackData/train/121_jpg.rf.841d2153f7d6d7754016a9b31e2a5be7.jpg
CrackData/train/368_JPG.rf.7d196c8d71dc1465ecc76c0886b1c4d3.jpg
CrackData/train/187_jpg.rf.fe784a34f9a9213e1626d86d5ab4baae.jpg
CrackData/train/035_jpg.rf.808170a9fc57d713fc7947df9f371480.jpg
CrackData/train/407_JPG.rf.24320cedc3ac4b91a6f62b7b599dfaea.jpg
CrackData/train/517_JPG.rf.f3a8b85752b817e92175744458a39d99.jpg
CrackData/train/220_jpg.rf.68f77d66c40fda6993d7a14c1ec8335e.jpg
CrackData/train/291_jpg.rf.381750a834761cd11db6a9ec254992f7.jpg
CrackData/train/174_jpg.rf.224691583984be0d6dcbbe10ea32d8eb.jpg
CrackData/train/141_jpg.rf.58bf15709b11d33f52f1e8f1d213e126.jpg
CrackData/train/125_jpg.rf.880f2735f27028eb2ef6e76d02bf0fa4.jpg
CrackData/train/180_jpg.rf.2c2daa1a51ed5b9fb46096ba74757fb1.jpg
CrackData/train/186_jpg.rf.3d0a3c18c7e3bbd2f7fe489318cd3a77.jpg
CrackData/train/041_jpg.rf.6e10c87bd1c82360f950c54e3f52d680.jpg
CrackData/train/258_jpg.rf.69b2050aabc0bba17de9ea9e193eef6c.jpg
CrackData/train/363_JPG.rf.262be1ba99d9d6f7b7eef8e5969aeba3.jpg
CrackData/train/108_jpg.rf.ef32f2ea256dfa63a5edf7128933af43.jpg
CrackData/train/130_jpg.rf.21cf51cee9ce9820e0543c2b3bd5b648.jpg
CrackData/train/057_jpg.rf.1289b6e60e599896a61239b5519921c2.jpg
CrackData/train/548_JPG.rf.796cc327c6dcf53e55c05447e0fe7a72.jpg
CrackData/train/252_jpg.rf.0d3b7f2b2c51e7668f07ad177a6f8f62.jpg
CrackData/train/061_jpg.rf.8837aed7b4ac79f6eadac1fca21b11c7.jpg
CrackData/train/080_jpg.rf.64aeda0b7b054d01f0889d42f010eae9.jpg
CrackData/train/482_JPG.rf.20f56eda2e6eef3d8695be8b8de0d9e5.jpg
CrackData/train/232_jpg.rf.c3d1ade849bbcf86fd4c6d58bce9bac7.jpg
CrackData/train/203_jpg.rf.c5bad218286e44d41e7550b91f9719ed.jpg
CrackData/train/115_jpg.rf.ef93d34d95b9806274026b9a1ac06feb.jpg
CrackData/train/195_jpg.rf.37ce1384a82c004b897c69ce4bdd118e.jpg
CrackData/train/102_jpg.rf.52f05ad442be72a40db33a802da5f87c.jpg
CrackData/train/580_JPG.rf.c1578c357d0121aca7a9dba1ce658ce5.jpg
CrackData/train/463_JPG.rf.46bb1e16c3718acba3b6a0c77d21aa69.jpg
CrackData/train/226_jpg.rf.cfb148c31748d8c3018d43416d140b9c.jpg
CrackData/train/125_jpg.rf.82b77cb207e7e63303e2b1cada93a408.jpg
CrackData/train/431_JPG.rf.c489def79ecdfc31099fe15510374c78.jpg
CrackData/train/264_jpg.rf.38407d35547a7a833549fd2524f30355.jpg
CrackData/train/138_jpg.rf.e0c48e8f9c86849b3b8ecfc522cf3bba.jpg
CrackData/train/086_jpg.rf.63c5b861004b7d9a4b9a9f7544a79a02.jpg
CrackData/train/428_JPG.rf.7ed2ec67977a3b819564291b5341adf0.jpg
CrackData/train/229_jpg.rf.e1340161b748d0553c60c580cc0aa6c4.jpg
CrackData/train/026_jpg.rf.13d3aa49b682024a7729265554a85080.jpg
CrackData/train/402_JPG.rf.bd24cff6f3aef7915c1fc205e8eaea9c.jpg
CrackData/train/424_JPG.rf.b2137b5338f243a8a55bc1ba6f50d1b4.jpg
CrackData/train/470_JPG.rf.e2b06f5dbfad08af77cfdd0915616bc5.jpg
CrackData/train/098_jpg.rf.f0e87e39a899833867d20c91c35364df.jpg
CrackData/train/134_jpg.rf.74e56978202783a2696e1ecf9ca5ccf4.jpg
CrackData/train/023_jpg.rf.aac1603107d0001a9decffd7c73d33a3.jpg
CrackData/train/108_jpg.rf.6bc770ed32d0cac0814ae14056eb158b.jpg
CrackData/train/405_JPG.rf.11e6028f8b5f6d4b52eda24383d257ca.jpg
CrackData/train/196_jpg.rf.3a9978956c06a9d462826bb5045b11be.jpg
CrackData/train/118_jpg.rf.006393f2be099071f9426febc3bb8539.jpg
CrackData/train/541_JPG.rf.e8a12203ded5d22c293d2a9ea4791d26.jpg
CrackData/train/282_jpg.rf.a30c1b020efc98761896e6d56b00ad94.jpg
CrackData/train/428_JPG.rf.5cb351176c1f1b12d19946bd840f45e6.jpg
CrackData/train/490_JPG.rf.8579e111f5ed03f904d7c71b233367fd.jpg
CrackData/train/028_jpg.rf.c68bdce2b369c1e08db9a26bc33bacd2.jpg
CrackData/train/130_jpg.rf.85a8ff90f1e20fce6edb3b969a72b506.jpg
CrackData/train/032_jpg.rf.da3e6e7adec203bdd169b4f43358c028.jpg
CrackData/train/137_jpg.rf.a3db6e63f066a56d0ac6e8b15b2daedf.jpg
CrackData/train/195_jpg.rf.c8223a76ae3cf43c8eb47b8c7de00d9e.jpg
CrackData/train/516_JPG.rf.55e729fd8d8ba69b96373a763401218e.jpg
CrackData/train/433_JPG.rf.f11c726de934a3be3cdd004dd991bb5e.jpg
CrackData/train/512_JPG.rf.851236a6010ce841d8d81122fafe5d07.jpg
CrackData/train/451_JPG.rf.5239fe7b424c0757ecf17d0311ddca19.jpg
CrackData/train/147_jpg.rf.6489c95ba6f17836b9ca6cdaf6b81bfe.jpg
CrackData/train/563_JPG.rf.16a3367e0f786418e7026a9977250e2a.jpg
CrackData/train/520_JPG.rf.4ce5c5dc3c79479b41330cca1ee0a723.jpg
CrackData/train/058_jpg.rf.ef4227b48b569d72dc30d2be90275091.jpg
CrackData/train/259_jpg.rf.425f9d12b33f1913a446525103be31ca.jpg
CrackData/train/464_JPG.rf.2f8f79002113d70d685cd4478784b428.jpg
CrackData/train/037_jpg.rf.2c3c251d0119906f875a044dc0747201.jpg
CrackData/train/526_JPG.rf.fc658928c9c88b53af71a8638697eaf4.jpg
CrackData/train/589_JPG.rf.c6d6a86ba44cac9ef56f2fc0ac6c0522.jpg
CrackData/train/126_jpg.rf.39d4e296b8aa37a62a9ccbd9fd78ee7a.jpg
CrackData/train/405_JPG.rf.580af441c74fbc5dce1a22d575998274.jpg
CrackData/train/119_jpg.rf.3327868334604a995c446a9645744f30.jpg
CrackData/train/515_JPG.rf.78ab024b6b0ee8d4d1397d1d37437311.jpg
CrackData/train/242_jpg.rf.f0521cbeff2430f2175b8fa774f2365a.jpg
CrackData/train/493_JPG.rf.1ea92f76ada2a04d3cfe6601c77d2010.jpg
CrackData/train/072_jpg.rf.c0c20d038adfd311109c5eeb4c57c319.jpg
CrackData/train/175_jpg.rf.95bf81f3436b8d22fd086e78a65759a7.jpg
CrackData/train/177_jpg.rf.77680f790ab0bcd1f96412b7edebfcb8.jpg
CrackData/train/113_jpg.rf.a7cc97468ac72a6f336d45dd719047db.jpg
CrackData/train/098_jpg.rf.97295698db1eead7ec8eca66f3487cd4.jpg
CrackData/train/288_jpg.rf.a1e6ca53b7e259e677341a1c689bb56e.jpg
CrackData/train/081_jpg.rf.7b05d98ea5b13ee77030f93e7597deee.jpg
CrackData/train/119_jpg.rf.9666a2e4392bcdf6b4a0c512f2770d7a.jpg
CrackData/train/403_JPG.rf.cec705cb67e3b0f48e0bca687d013ede.jpg
CrackData/train/415_JPG.rf.a48c21d564189094e693566ad7481799.jpg
CrackData/train/471_JPG.rf.9c7c277e353bb1d90d4a4bc91fe9b43f.jpg
CrackData/train/048_jpg.rf.41057b7f9120a54e0977a38015455ef3.jpg
CrackData/train/434_JPG.rf.0a7bac5e7a58f5b3670e004c74f01e3b.jpg
CrackData/train/078_jpg.rf.241c0f82b71eddb5452e6525c9d1ece9.jpg
CrackData/train/129_jpg.rf.47142662870cfe1509fd02f5a9244cca.jpg
CrackData/train/324_jpg.rf.2bc12c71db2236d0f92627654b959677.jpg
CrackData/train/535_JPG.rf.e52eec0828ff7f71fcd058d08552b7ec.jpg
CrackData/train/435_JPG.rf.bb41faf1c3a21ab4189405e3b6fe3848.jpg
CrackData/train/168_jpg.rf.d4053e1afbe338a24c07a14bf3cbe685.jpg
CrackData/train/433_JPG.rf.87559f728114b0e6992cb57f8e924e91.jpg
CrackData/train/552_JPG.rf.3a31d2373b172be31b1a967f95f1aaaa.jpg
CrackData/train/188_jpg.rf.ece4ab31da6e7fbd4d9bab7d88652133.jpg
CrackData/train/496_JPG.rf.22e3b8326ad49220f94ccb0657647bfc.jpg
CrackData/train/423_JPG.rf.076fc046598b296745e582e377663a88.jpg
CrackData/train/535_JPG.rf.da48e66223d6abce4d0190c7fcb51884.jpg
CrackData/train/490_JPG.rf.121fff5f9d3b0cbafad7dbda028cf210.jpg
CrackData/train/142_jpg.rf.10f09e2e7a8245c63e73c2c907663fa2.jpg
CrackData/train/437_JPG.rf.7b240354979f1ea06cce1db5de7e6ca6.jpg
CrackData/train/207_jpg.rf.ba1f35918713da50954b12a755de97c9.jpg
CrackData/train/252_jpg.rf.3a71c591ebf0b30c93c72e5b6b8287d2.jpg
CrackData/train/493_JPG.rf.c53f786862b7acbec4c09af420251c92.jpg
CrackData/train/233_jpg.rf.7c1bcb7c8f47be7691fb847c9b12e171.jpg
CrackData/train/130_jpg.rf.2b354dc67c23a368325247e44c249448.jpg
CrackData/train/250_jpg.rf.40208898592b8ebdd84b509916316917.jpg
CrackData/train/075_jpg.rf.cb2dc79c98e254d25f4bd45ce9ea5e89.jpg
CrackData/train/554_JPG.rf.4a45b31a07ff488d5f936d6690cd367d.jpg
CrackData/train/221_jpg.rf.b7ea47c47fd15daf67193d37f4e8ce31.jpg
CrackData/train/549_JPG.rf.ce649600b44923ab88df3cf68c749a22.jpg
CrackData/train/464_JPG.rf.7e8e5296f2657effe1c7e8c21e218c2b.jpg
CrackData/train/188_jpg.rf.6763af8e73f389e36f00d09426736b61.jpg
CrackData/train/512_JPG.rf.13409bd8d5e88e5c21429d311a3a3e68.jpg
CrackData/train/226_jpg.rf.c3de8a58712c6d6f856bba3e13ce8326.jpg
CrackData/train/028_jpg.rf.b99c111a3b354e84233ca748946b5dca.jpg
CrackData/train/358_JPG.rf.3fffb395f1b263531118e186d62152a2.jpg
CrackData/train/186_jpg.rf.8055f625aa08efd56b6a11b4b6e8118d.jpg
CrackData/train/117_jpg.rf.c0daac5bbfddd854aa0f76f166a7d106.jpg
CrackData/train/500_JPG.rf.bac03a0eefe579054c0de931c45eefe3.jpg
CrackData/train/207_jpg.rf.ca9c0c4104e6a8412a548d2b563f6692.jpg
CrackData/train/306_jpg.rf.15f2cb4b8ae01c1a3b62a632195a6096.jpg
CrackData/train/361_JPG.rf.b1f90d1941b1461d4bdefd03641cb280.jpg
CrackData/train/360_JPG.rf.ec40cc97affbd39f6f7a510f7358849e.jpg
CrackData/train/144_jpg.rf.02ac160ef694a5b1d7692e8bac637d50.jpg
CrackData/train/122_jpg.rf.b6859708b38c4b59a3841b80ea3405f8.jpg
CrackData/train/364_JPG.rf.cfcae23b9486b402b0589d169a0152cb.jpg
CrackData/train/043_jpg.rf.48b3d94fbbb1527f6685057959f6c4cd.jpg
CrackData/train/178_jpg.rf.22afbff7050355fc7520918bcfafe633.jpg
CrackData/train/555_JPG.rf.70973a52f01f3cd28359ea119d90d8c6.jpg
CrackData/train/169_jpg.rf.0eff9655f19d4bed32973ca84df4cdee.jpg
CrackData/train/125_jpg.rf.a0a1a5ebcc046db02073f6853eb2322a.jpg
CrackData/train/124_jpg.rf.ff35845e9ecf7f953d287612ae659cd1.jpg
CrackData/train/572_JPG.rf.796bd0209ec31be465d09436caa7fe56.jpg
CrackData/train/546_JPG.rf.a16b9c57364d88742772ff34a8056dd9.jpg
CrackData/train/370_JPG.rf.ff97f4d41db3a92cece4cbc94bfd4dff.jpg
CrackData/train/306_jpg.rf.af99e1a52417f6ba6f542f25933a1c8b.jpg
CrackData/train/376_JPG.rf.7a1f552051b0e8b1508141381a825c8a.jpg
CrackData/train/267_jpg.rf.88a2c60280189c4bf912dc894c8adea9.jpg
CrackData/train/281_jpg.rf.205ce3156ab2b0937f26d444704c1c5a.jpg
CrackData/train/262_jpg.rf.70cd87dc387a76a27b4256a85e3a1951.jpg
CrackData/train/054_jpg.rf.4ada81589bcc68f137190d40467ecccd.jpg
CrackData/train/126_jpg.rf.c0957260b45062907d09bf0273fcf232.jpg
CrackData/train/084_jpg.rf.f47639219fc8a564e95c4835aec821de.jpg
CrackData/train/061_jpg.rf.c2d4109ca9014a5435029305d3b9326b.jpg
CrackData/train/441_JPG.rf.87ee528269970cb27c9502e740b0214e.jpg
CrackData/train/243_jpg.rf.df08c60068490d75a6dbb584d4633ae6.jpg
CrackData/train/447_JPG.rf.21856791c36604621b021120978ac709.jpg
CrackData/train/321_jpg.rf.d4244a4779a09163045d00cc6579d849.jpg
CrackData/train/431_JPG.rf.40635aacdb51858ec76eb048ceb7c06d.jpg
CrackData/train/463_JPG.rf.ad6ae1190322c087484c9cf663f8b3de.jpg
CrackData/train/124_jpg.rf.38bf7da7c94dd7873527714ac1117f22.jpg
CrackData/train/025_jpg.rf.5df73fccf8c3fbbded91156f72f92c5b.jpg
CrackData/train/424_JPG.rf.0692412ee5be2c34bc10329c226d4da3.jpg
CrackData/train/555_JPG.rf.c29a2ac2edc4d466bfb6c4bf4d18a1f1.jpg
CrackData/train/357_JPG.rf.65d59783f1ae0eacf0b1a00d8d4160cc.jpg
CrackData/train/019_jpg.rf.11e4b077d86464929cd88f34603c92b0.jpg
CrackData/train/419_JPG.rf.b7e201213b7ab8c07eb2adadd6991e83.jpg
CrackData/train/204_jpg.rf.13e215beccee35600e1e42938e67c410.jpg
CrackData/train/080_jpg.rf.ae31d34944f28096fdb8c8501946289d.jpg
CrackData/train/087_jpg.rf.de164d37a6e06ee2f5f22c90ebe6e747.jpg
CrackData/train/098_jpg.rf.216d39d566c9d7411a08cfc9103b9829.jpg
CrackData/train/144_jpg.rf.91d11259e884e5947aabd43f0b45d4d9.jpg
CrackData/train/191_jpg.rf.9abfe4e4ea35d973af730488f44298bd.jpg
CrackData/train/406_JPG.rf.2bb07ec0a29f4e8f505ea18073093d4f.jpg
CrackData/train/103_jpg.rf.575eb7cd997dbef67c3782ab84e76416.jpg
CrackData/train/136_jpg.rf.0de32c8bf816968df37019ee2d84815a.jpg
CrackData/train/054_jpg.rf.044071e0eefbabcd5d7f198e65b1bb75.jpg
CrackData/train/527_JPG.rf.0322f8f2d0f90bc4e261a63bce12a4d9.jpg
CrackData/train/143_jpg.rf.f9fc9f73502c38fbb08d16579307f4c2.jpg
CrackData/train/383_JPG.rf.8def922dd52acb85fc5a84fc6a668e7b.jpg
CrackData/train/486_JPG.rf.4a8eb76009ca180889b22d70b6b044e5.jpg
CrackData/train/417_JPG.rf.e8e3010782bcc7cb3f7b2fa7bb6b2b43.jpg
CrackData/train/117_jpg.rf.be49aa02ccb06f59070323e0f3fa7d16.jpg
CrackData/train/380_JPG.rf.8a0005ade83447110d0d08c9476a9d1f.jpg
CrackData/train/423_JPG.rf.728ac84a547e80ce26e79bba2302ed05.jpg
CrackData/train/246_jpg.rf.b78e2d539d2db28a8c78986c204c375d.jpg
CrackData/train/591_JPG.rf.2db56ef1ad10c939a4a86ba46eea81db.jpg
CrackData/train/037_jpg.rf.64168dfc3fcdb99cfc9afb800ea2c4a1.jpg
CrackData/train/424_JPG.rf.28c9ee010281949126db9e35fd283984.jpg
CrackData/train/482_JPG.rf.2e4bfc96ea187656bd45fe38175a826c.jpg
CrackData/train/291_jpg.rf.35ce45cd820f22c00b49702220aef721.jpg
CrackData/train/059_jpg.rf.c6592a701819322b99aa32fef4cc3de9.jpg
CrackData/train/497_JPG.rf.dcb8968585953b64c3a6dd3f3abfead0.jpg
CrackData/train/572_JPG.rf.eeb3b90b367fbc70b9a9f19910cabd4e.jpg
CrackData/train/522_JPG.rf.1a0d18d82b7bbd91816d4b495d6d5ef4.jpg
CrackData/train/413_JPG.rf.5908ebb8fd160882a9dd21b4c700d7b8.jpg
CrackData/train/439_JPG.rf.354acc2cb50c780cea025d13575bdc12.jpg
CrackData/train/138_jpg.rf.90eb1847d613744ea18f5fd97a3cf3da.jpg
CrackData/train/017_jpg.rf.fe84004f4f7574a8c6eaf1da852ca8aa.jpg
CrackData/train/555_JPG.rf.9308c937ca7a812fb03208002c764dbf.jpg
CrackData/train/245_jpg.rf.1a7d55d5dbf30dcae7b34e02e94ee0da.jpg
CrackData/train/027_jpg.rf.289cf4d242fdf2ac8718b90fcbc73f2f.jpg
CrackData/train/205_jpg.rf.a19db9780111680b4150a2072953395f.jpg
CrackData/train/359_JPG.rf.f018f4f367378b787e31e640c12e6bc4.jpg
CrackData/train/089_jpg.rf.ddd5378c58dc8de4340686113796604f.jpg
CrackData/train/536_JPG.rf.755da452a0bf9fabb546b6a89b8790d5.jpg
CrackData/train/109_jpg.rf.322d1127517f6ab42c1f5ddb22644d5e.jpg
CrackData/train/297_jpg.rf.c585927909837b354e38d622d26fdecf.jpg
CrackData/train/058_jpg.rf.4c2e3e3074e6bb784088f5f9c300c762.jpg
CrackData/train/362_JPG.rf.1a8f2bbd97bdeead26df4793d158156a.jpg
CrackData/train/290_jpg.rf.221d142678184cbd7d3412673d063f40.jpg
CrackData/train/177_jpg.rf.c9a27f07686b3018c9de691d0b26eeb1.jpg
CrackData/train/384_JPG.rf.053cfc2b227b0986494c6be699a6633b.jpg
CrackData/train/081_jpg.rf.c1710dd3cbaa90276074d2dd14105c77.jpg
CrackData/train/408_JPG.rf.f150d09b59ffe40ee4358f4cd5f7c4de.jpg
CrackData/train/485_JPG.rf.98659ee0bcc498823728d0181e060b9f.jpg
CrackData/train/253_jpg.rf.ce2669ffaabdf621587f595bd76fa402.jpg
CrackData/train/064_jpg.rf.2ec92df7aa03960ce3555b06bb84d3b7.jpg
CrackData/train/147_jpg.rf.84bda06a64ebc2692fb7ccff22f83deb.jpg
CrackData/train/198_jpg.rf.fc5a0b1f7c371d9b2c361dd1910f815b.jpg
CrackData/train/274_jpg.rf.04b6f97c7de00a539b4f2fbabb4ee2fe.jpg
CrackData/train/582_JPG.rf.1d09a8e5d47f68b8620314389aabea78.jpg
CrackData/train/057_jpg.rf.26985937a3874a374eb0054ac091c2b0.jpg
CrackData/train/291_jpg.rf.cccd8eb6fff1baad73a1465567353d93.jpg
CrackData/train/587_JPG.rf.0641fffdd0ef1c7e093548616377378c.jpg
CrackData/train/232_jpg.rf.a4df32709cf606ecce0e24721f56c7e2.jpg
CrackData/train/379_JPG.rf.bb471e8b19a3988edc721a5aeeac141a.jpg
CrackData/train/457_JPG.rf.e176412c325b23075f8ff4fef208d8c6.jpg
CrackData/train/530_JPG.rf.bcc7ad30973def467c68d4ad990b61c6.jpg
CrackData/train/050_jpg.rf.1edbd6197e0f34077b895ec6e2deb3ae.jpg
CrackData/train/023_jpg.rf.f6319d58c6eb6ce1d09bd80f731dfef1.jpg
CrackData/train/510_JPG.rf.9fc015c49ef528d8dbee72ff785cefb8.jpg
CrackData/train/417_JPG.rf.aa439f6a711dae17e3ec7c95bf3b1735.jpg
CrackData/train/104_jpg.rf.bdefb68b60d0ac9f97b004b80722fc1d.jpg
CrackData/train/441_JPG.rf.24db7cc38e502a6f6fa40551197ed753.jpg
CrackData/train/277_jpg.rf.aa60bd2da72bcf24323a38116e864ef0.jpg
CrackData/train/574_JPG.rf.9bbdf914c8e8475df90f8bec265b9ca0.jpg
CrackData/train/552_JPG.rf.710908816899ffcf9cc2218903175b61.jpg
CrackData/train/211_jpg.rf.da1ff1bd319870ea747bf0a84858fc38.jpg
CrackData/train/096_jpg.rf.2b819a6674518c5ecfd62ac5242153be.jpg
CrackData/train/273_jpg.rf.779f7802d1d91325cd9b2eb866325a5e.jpg
CrackData/train/085_jpg.rf.d53ed3d48a6cd833c58ad9a25166fbac.jpg
CrackData/train/369_JPG.rf.e9d409f5e44b7a418b1aeb78b7267972.jpg
CrackData/train/269_jpg.rf.61e74c7d5e7c3dbff8730b5a7e673165.jpg
CrackData/train/575_JPG.rf.83db5fc80f163258c1d355517921d70c.jpg
CrackData/train/238_jpg.rf.c5049f8b9f0c7b8533dc3bf260367f1c.jpg
CrackData/train/181_jpg.rf.e5f4c4e7be02038541363923b1f8a546.jpg
CrackData/train/179_jpg.rf.469e6c07f80a95a60eb9a106fcb4de56.jpg
CrackData/train/001_jpg.rf.532a07c4566fa3bee17e0bc5f05374ec.jpg
CrackData/train/381_JPG.rf.e3b38f9ef49fb7a8071f158bee81a039.jpg
CrackData/train/453_JPG.rf.48813fa7372b75a59e4589c463e295d4.jpg
CrackData/train/568_JPG.rf.e239f1967a27e08e4e9958ffd41ecfe4.jpg
CrackData/train/475_JPG.rf.66feb299cd49b2fb2660217a9f293a81.jpg
CrackData/train/575_JPG.rf.eb4a0f1fb11008dad5db9d227da6568e.jpg
CrackData/train/226_jpg.rf.115652d3fd7b520d96e462e72e54ce73.jpg
CrackData/train/578_JPG.rf.3a7914fb5878bc65d383ddb9532da134.jpg
CrackData/train/417_JPG.rf.a5c26ec0ea8591041652619c0122dc6f.jpg
CrackData/train/069_jpg.rf.1ba8654e67290b6da9eafea236a0e97d.jpg
CrackData/train/301_jpg.rf.cdae95388d9ccb06017b166437e026ce.jpg
CrackData/train/196_jpg.rf.4d964a52e8e52563a741e79393f22b5f.jpg
CrackData/train/384_JPG.rf.319a21508649f6f45961e273bcf0aa80.jpg
CrackData/train/323_jpg.rf.80fa4fc76e5efa2d524c615ed5490559.jpg
CrackData/train/186_jpg.rf.291deafde978b08d9842ffabbac103a5.jpg
CrackData/train/212_jpg.rf.a16428e295870d65999b41f394365a8a.jpg
CrackData/train/046_jpg.rf.71ce140662150bfa62549651a0dce575.jpg
CrackData/train/084_jpg.rf.03e2f8b05beb0245d14512c481413f4f.jpg
CrackData/train/223_jpg.rf.e0c1ae1ec1bd4a13668e4ed42537aaa6.jpg
CrackData/train/172_jpg.rf.6a6d6aa59a067d7ee5cf59866810c841.jpg
CrackData/train/373_JPG.rf.799dd6a5648314af3dc4207aef7fcf04.jpg
CrackData/train/358_JPG.rf.80892799fdbece0f6207365a15c0c4c5.jpg
CrackData/train/078_jpg.rf.4a18a8ae3373c31df0fb9000de28452f.jpg
CrackData/train/363_JPG.rf.e402eade8565d0f8a3e876946992217b.jpg
CrackData/train/374_JPG.rf.dcb55c90c06b62111a26bf9db1a88f8c.jpg
CrackData/train/485_JPG.rf.dca64c082abde9d2aefa137bdb7a8f48.jpg
CrackData/train/543_JPG.rf.73a32616a54929ec5890a3db72a49d04.jpg
CrackData/train/212_jpg.rf.fad81b36574e82ebbd75411814b0632b.jpg
CrackData/train/435_JPG.rf.9d9b7f3109d65c5571b754392edee851.jpg
CrackData/train/420_JPG.rf.a49752391e58ae6596147a2a2f7645d4.jpg
CrackData/train/048_jpg.rf.815fe0d079cddea500322e803133e9f1.jpg
CrackData/train/040_jpg.rf.664f30b7b0e2c3f4c82c0c137916f1bf.jpg
CrackData/train/582_JPG.rf.76e932f5cff778f190296dc5fc907d05.jpg
CrackData/train/365_JPG.rf.ca377bf6c9f77c7d8b6b535238480f21.jpg
CrackData/train/093_jpg.rf.420c395a58a74a379282e12cad8bb164.jpg
CrackData/train/563_JPG.rf.5b3e44ad81a3e604f12b642d79c00371.jpg
CrackData/train/145_jpg.rf.2ffefeadc0c6a9e107fa7c8925f418aa.jpg
CrackData/train/072_jpg.rf.76e10c0a7bfb399f4acbe7efd6020fef.jpg
CrackData/train/167_jpg.rf.e01b627744a195a8373a3d186cbe4c92.jpg
CrackData/train/039_jpg.rf.11177d17bb7bd124ef1638c7db405b28.jpg
CrackData/train/060_jpg.rf.96643dd76fe68f33af57696d93a80160.jpg
CrackData/train/210_jpg.rf.919d8753e438fd9ee81682b7a2efe9dc.jpg
CrackData/train/376_JPG.rf.1803cb6717cad74823b96422c1d23183.jpg
CrackData/train/236_jpg.rf.6c396bd9744279bf8c757b97bd5c5d15.jpg
CrackData/train/205_jpg.rf.c9f8748beb88d44f534f9c371380c7ef.jpg
CrackData/train/120_jpg.rf.e5af1c2e5787b2a8215f7f9c503f901e.jpg
CrackData/train/198_jpg.rf.6eee00514f79c0b445848644add1fa05.jpg
CrackData/train/479_JPG.rf.557725b6323d3cf14b87557d1d0f5e38.jpg
CrackData/train/455_JPG.rf.26b8213f0320209ff4d1fdd163152141.jpg
CrackData/train/408_JPG.rf.852d69a52aa830a92aff48aa05be84d2.jpg
CrackData/train/218_jpg.rf.da1a4b48eeee7660c32174e3a9607ac1.jpg
CrackData/train/199_jpg.rf.0c92d667829ce8215698346c850192d3.jpg
CrackData/train/036_jpg.rf.4a00d7cf0e22cac37f494ece77d1aa84.jpg
CrackData/train/466_JPG.rf.07ad9772b372d8e8a7072a3b2be7d836.jpg
CrackData/train/181_jpg.rf.21a882d84e1842ac51d748e12989463d.jpg
CrackData/train/451_JPG.rf.5cec8d54bccd9c0c2ad55d9323e4c78d.jpg
CrackData/train/504_JPG.rf.dfb65ddb3e779793fdbd09f3aecc3d44.jpg
CrackData/train/213_jpg.rf.8298801af9bd38d4972f9ed12bdf3425.jpg
CrackData/train/453_JPG.rf.ec454e7c148c820f709a4232038fc2c5.jpg
CrackData/train/043_jpg.rf.8a1ebed09d38f83efff436372531f907.jpg
CrackData/train/135_jpg.rf.ba8a60e5e4df7a6514ba91ca26812cd2.jpg
CrackData/train/103_jpg.rf.6a26105b8a85d796c3c18b259968a8e6.jpg
CrackData/train/063_jpg.rf.b8ac37b575a933ae5cedaa619824b2d7.jpg
CrackData/train/085_jpg.rf.2effe442df4e652352b28c627af589f0.jpg
CrackData/train/404_JPG.rf.37d5c985f17a4a886cc5a7fdcb744205.jpg
CrackData/train/456_JPG.rf.bcd8a34ccda0c65c7a6860cb4c26eeb9.jpg
CrackData/train/421_JPG.rf.7d12db2af98feb8eca004977690efc14.jpg
CrackData/train/112_jpg.rf.1fa4865e30f4bdcc5b1b23a686ccdc8a.jpg
CrackData/train/036_jpg.rf.c69168ddff5cc276a4c5afe19bae8327.jpg
CrackData/train/258_jpg.rf.698d52361de80c1b8bf02a20e8ecdad6.jpg
CrackData/train/193_jpg.rf.913484d8b15542991da4b99a29cd69df.jpg
CrackData/train/498_JPG.rf.0b7e5ed8c36adbfb043a8f97ac86d3d4.jpg
CrackData/train/282_jpg.rf.a46863fa63bfe459e5f7239e93f008cf.jpg
CrackData/train/584_JPG.rf.e7ab5ca3853bbda2c4c9b51201aafa1c.jpg
CrackData/train/466_JPG.rf.f469ac3e5dc63cdf044f6d3f9fb2b46c.jpg
CrackData/train/271_jpg.rf.ea279248b689bc52b0f6f2fe8bf3c5f3.jpg
CrackData/train/147_jpg.rf.96f4a7a58bb04ee2dbcb76dee8ae70ad.jpg
CrackData/train/488_JPG.rf.426e306550c6c7c5e396e12a5b159e7d.jpg
CrackData/train/523_JPG.rf.193911b18af57dd5d7522c46ffb20859.jpg
CrackData/train/082_jpg.rf.b1b2769a25f8df2da284d01883c009f6.jpg
CrackData/train/086_jpg.rf.af274f04c8b59a08f4592110444b75ae.jpg
CrackData/train/176_jpg.rf.8c9722852a9a052795f3e67b5c91452c.jpg
CrackData/train/026_jpg.rf.4a4f3aa0cebfcb59c4acc6dcfdbc254e.jpg
CrackData/train/248_jpg.rf.c5603b2af124621550a320769ea17856.jpg
CrackData/train/360_JPG.rf.df1fa4a5daa717ac5250b45b6b1d7e7b.jpg
CrackData/train/269_jpg.rf.6ccfae5d494a111e287a67ca2171eb69.jpg
CrackData/train/079_jpg.rf.1e52ada272a2d41a3ecd325eac598893.jpg
CrackData/train/201_jpg.rf.b702ce3ce3025e5c3cc1df40a9841bb4.jpg
CrackData/train/374_JPG.rf.9be2af73035cc222720c43bf37814845.jpg
CrackData/train/413_JPG.rf.bc93b2f3d659248a96b3120a0a8c8d1f.jpg
CrackData/train/534_JPG.rf.2bd184ca67ff48350946312459fe7e5f.jpg
CrackData/train/047_jpg.rf.64efd4cda5d368674b80f83073bfd324.jpg
CrackData/train/559_JPG.rf.02a089354c186299f4850f73e94dcec1.jpg
CrackData/train/019_jpg.rf.a4dc947eca629bd515cdd0fa0d1d20ed.jpg
CrackData/train/281_jpg.rf.1a7c0d472230a70eae677638faf137f3.jpg
CrackData/train/293_jpg.rf.57e59499c8bb0cc7c1aba8546169ff61.jpg
CrackData/train/551_JPG.rf.00f212862d499f5aea0baa710b70a727.jpg
CrackData/train/096_jpg.rf.2e50ec4f7ddaf76be3af9d0a3c354da4.jpg
CrackData/train/180_jpg.rf.0c14df382df568be1d3845169f3f1917.jpg
CrackData/train/115_jpg.rf.7da994d8797bc53fc0d128065b6b2634.jpg
CrackData/train/141_jpg.rf.7ac640c0412f14271f06431bd22287ee.jpg
CrackData/train/459_JPG.rf.51684b435c965feb674af72a57285bbe.jpg
CrackData/train/068_jpg.rf.1b52b509d0a2a1e1ba29170860c944cd.jpg
CrackData/train/198_jpg.rf.17e63bf9ff5d59ba9fee479de8c7d8e9.jpg
CrackData/train/095_jpg.rf.42d29285bd72f8a0baac3429b2831f29.jpg
CrackData/train/358_JPG.rf.a9c9960c410cf507a1aba325c4c0eaad.jpg
CrackData/train/548_JPG.rf.c5e37bc67ceb55c286ea5c5b7dd6d17a.jpg
CrackData/train/046_jpg.rf.3eb4eef74162d89eaa166ff3678f86f9.jpg
CrackData/train/273_jpg.rf.ac937aae8937e97b752f9b15463a7594.jpg
CrackData/train/104_jpg.rf.3a7a7dbd192ef904f992298641fba323.jpg
CrackData/train/323_jpg.rf.f069c2a7ed270ad647c7532985a143d2.jpg
CrackData/train/104_jpg.rf.dd9aed873be1b5b121c48f10cd46ec56.jpg
CrackData/train/260_jpg.rf.2cb417006adee904c705e18924b72de5.jpg
CrackData/train/410_JPG.rf.d97068ecb3fcc0a7492570bf212c2c58.jpg
CrackData/train/448_JPG.rf.08c0bc056dd2d6f597314c04f205c36d.jpg
CrackData/train/404_JPG.rf.a3af087a69663156818ec8ac207f722d.jpg
CrackData/train/103_jpg.rf.6234a40016785c9cccc2576c4e0b67ff.jpg
CrackData/train/063_jpg.rf.0bbee30ac0a298a73a406cdabf11fceb.jpg
CrackData/train/591_JPG.rf.981a867d93496f193ece1223cc15d4fc.jpg
CrackData/train/466_JPG.rf.28fe72869bd5d0ed421b0e69d0f3a274.jpg
CrackData/train/064_jpg.rf.6a52f3c9f18ac8d067adab0e4e90055c.jpg
CrackData/train/097_jpg.rf.8b3fb1c88cbb5ba1c48f0ba2998e8e22.jpg
CrackData/train/249_jpg.rf.fc034f2dc30a4dbc7a530ba28a5c2d9e.jpg
CrackData/train/498_JPG.rf.8209fe4d1d346ca7caa84b20b591a53f.jpg
CrackData/train/475_JPG.rf.a6763ec6470595b03dffae5f7dbc2687.jpg
CrackData/train/426_JPG.rf.89593aef8eb00213ad095319d1ec0ac3.jpg
CrackData/train/589_JPG.rf.48c183f385467c7bb869e0edc2af57f1.jpg
CrackData/train/487_JPG.rf.968dcc43ed59a4a1d58fca7a3f26900e.jpg
CrackData/train/527_JPG.rf.e15e8348caa0f01738315326cfe8dc93.jpg
CrackData/train/097_jpg.rf.cee74e8bfae12db065a9606058f3d573.jpg
CrackData/train/223_jpg.rf.aea7856ba613c896b63a6a4f8cdb3d17.jpg
CrackData/train/365_JPG.rf.f6cd7f77a5be2728511599457ce11a82.jpg
CrackData/train/514_JPG.rf.8f0d5b4ebb8487cc1343a67fdd06e7e5.jpg
CrackData/train/087_jpg.rf.9f8280de05fa2efa1076b8d1e54b1b98.jpg
CrackData/train/041_jpg.rf.bc3b9d6419e89a2655f0213a374b9833.jpg
CrackData/train/471_JPG.rf.3979961ea9fd9f90fd7333803149bf4c.jpg
CrackData/train/491_JPG.rf.12d5653a0424edb5adab9398facb494e.jpg
CrackData/train/566_JPG.rf.fb283fd7581f06dec620dc235b3b62a7.jpg
CrackData/train/180_jpg.rf.03a9f01086cc0ab9f514a401807cbb9c.jpg
CrackData/train/231_jpg.rf.cc5bb42b011e26698b7ad7022b00898b.jpg
CrackData/train/558_JPG.rf.ebe5f0e12743826d7c98552c71302144.jpg
CrackData/train/264_jpg.rf.c5236006330cb7aebb18d3a5a1cea2aa.jpg
CrackData/train/220_jpg.rf.80be47136a65c2178ca04cfd746a55fb.jpg
CrackData/train/380_JPG.rf.286e6d93c4b1145e080c8c8c5bde9304.jpg
CrackData/train/187_jpg.rf.940fa15d406f3528c4692310dded343a.jpg
CrackData/train/301_jpg.rf.d77547145fbe36e04cab3d60bd8e3aa2.jpg
CrackData/train/203_jpg.rf.456adfc722d6fe1e04821ed22805bfb6.jpg
CrackData/train/142_jpg.rf.5ee65ea9a70e638c7c5b74f8433a07b6.jpg
CrackData/train/149_jpg.rf.0895562916cc552e8319b63425c0a6ce.jpg
CrackData/train/234_jpg.rf.9db9a6e41a18a8800106c010020342f2.jpg
CrackData/train/448_JPG.rf.9ebc2a08c74fde162699ca6553e2756d.jpg
CrackData/train/526_JPG.rf.c5bd1154ad4d25ccc7dbc1a86d372c4a.jpg
CrackData/train/510_JPG.rf.b243e171c61315ffc53e2b7e34c287f3.jpg
CrackData/train/174_jpg.rf.df9eef45243c95dffcb0b2f7c11adf17.jpg
CrackData/train/379_JPG.rf.7361b632a33de3301e7c59d30a372331.jpg
CrackData/train/239_jpg.rf.005dcffaaef7f5c7dc6699be5f003af8.jpg
CrackData/train/476_JPG.rf.d6d0bf96c311c8cc1aced8a00bf079e3.jpg
CrackData/train/408_JPG.rf.be9b4a68720f08951f9a819f5fe507b1.jpg
CrackData/train/535_JPG.rf.25edbdc5f4bd40ad2bfeeb96752855c3.jpg
CrackData/train/562_JPG.rf.b0c3034e5c3296b85886d92eabfcf959.jpg
CrackData/train/167_jpg.rf.c5a0710e972a839f3c1107547b0713b1.jpg
CrackData/train/452_JPG.rf.186644fc3ed549714ca619de300bb3b6.jpg
CrackData/train/225_jpg.rf.24cf54a77878f3cf075ff1a315c6a1d3.jpg
CrackData/train/369_JPG.rf.362d3b4458b840991e51ad38afb64457.jpg
CrackData/train/508_JPG.rf.c461235d36b2449a164efcd4b5c77204.jpg
CrackData/train/251_jpg.rf.bb2c21c05c4ca392de799d436ca89148.jpg
CrackData/train/590_JPG.rf.089ed11a675186ca6dd534e699f926b8.jpg
CrackData/train/458_JPG.rf.942fe8fbd742cfff46d8a9784c2f0eae.jpg
CrackData/train/029_jpg.rf.e322bedc0b239b96e19da76e3f517af3.jpg
CrackData/train/404_JPG.rf.df883f283c178ac4bb57cce459baa661.jpg
CrackData/train/190_jpg.rf.c049e33e50bfeb398be6602eafa7f3cf.jpg
CrackData/train/107_jpg.rf.b3954fb064fef0da48b850c169df1047.jpg
CrackData/train/470_JPG.rf.8009fa21dfe889ba874a94ddc18da310.jpg
CrackData/train/063_jpg.rf.5b1c1fb5d44f39e165d5ba01a1b0c726.jpg
CrackData/train/049_jpg.rf.70d4e230022506785e7bcc43e6d2e535.jpg
CrackData/train/245_jpg.rf.81db06ac833553a4f822d04968ced850.jpg
CrackData/train/122_jpg.rf.09b1112e8cadb1ed2360d7a1dafd7285.jpg
CrackData/train/446_JPG.rf.862cb8bdff966e322f827a3d060ab96f.jpg
CrackData/train/170_jpg.rf.b35bd94472667678f9ebb38426ab93a8.jpg
CrackData/train/053_jpg.rf.6a27a80cc22a30176f7483058c71d010.jpg
CrackData/train/090_jpg.rf.a9d38c0d93156b92f52136c2f2e31706.jpg
CrackData/train/142_jpg.rf.51174729e803ad96219888919a607d13.jpg
CrackData/train/416_JPG.rf.1fd8701faeb591bc8bdfb27840d20ed8.jpg
CrackData/train/212_jpg.rf.f6896ff44d215d5e0ded8024be6a1826.jpg
CrackData/train/206_jpg.rf.e9610e5c4cfb46c007b641e569fb6f24.jpg
CrackData/train/111_jpg.rf.ac8593a42ed7421b854b6900af18d5a5.jpg
CrackData/train/192_jpg.rf.0e71141b10141c10eab36b46a02ab7eb.jpg
CrackData/train/426_JPG.rf.c46e7c26b92dedd96adbc43f4840003e.jpg
CrackData/train/283_jpg.rf.75aec9272cc82fd08558b696ef194cb2.jpg
CrackData/train/483_JPG.rf.60274d6ecde545c85f06adf0eb5f6300.jpg
CrackData/train/483_JPG.rf.4b899b4d77158d8cf48f836809819e3b.jpg
CrackData/train/215_jpg.rf.0c530ff2074405a5fb39d004fa4c03fd.jpg
CrackData/train/423_JPG.rf.dee3655d12cbc2ebd8e84c1f20dcf9eb.jpg
CrackData/train/479_JPG.rf.29e4fef1c00c0d30ad893c3c7cc67b88.jpg
CrackData/train/468_JPG.rf.d8db4823fecb774bee84b77a654c6c17.jpg
CrackData/train/085_jpg.rf.765609451725514032dd0e7d10a608cb.jpg
CrackData/train/431_JPG.rf.963248281e5144dd16be8bd35d9a4b4f.jpg
CrackData/train/456_JPG.rf.30afd4ac05f25cb59506dc353c53661f.jpg
CrackData/train/276_jpg.rf.0e5e71753aa33c85ef422f7e833131bf.jpg
CrackData/train/139_jpg.rf.b00b15c40c07d6a8d74b2c70ae447936.jpg
CrackData/train/254_jpg.rf.9bb658e3c7835852c784b64a837f9b62.jpg
CrackData/train/465_JPG.rf.69f9436c6bfe40d352fa6e3dda11a575.jpg
CrackData/train/112_jpg.rf.d32c0b79ed45e955c9581bd9de72f667.jpg
CrackData/train/471_JPG.rf.5fd13efa60484ebc96ba1872593255a2.jpg
CrackData/train/370_JPG.rf.ed006f7717681c1b77afe3da9b826ad2.jpg
CrackData/train/051_jpg.rf.51c4974d9ab446a50c08e1894bc9be13.jpg
CrackData/train/024_jpg.rf.719a7f96115f2ef14111f6fb6aee7df6.jpg
CrackData/train/359_JPG.rf.0e36d6f482fdb34363a98836836aa2d8.jpg
CrackData/train/486_JPG.rf.b39ba15bf2da2fe7dd21b31adf3d1365.jpg
CrackData/train/476_JPG.rf.60fde981dc9f0647ed7da77bbf962e81.jpg
CrackData/train/107_jpg.rf.a3152e7d5e14f295de708201036c9899.jpg
CrackData/train/420_JPG.rf.b3e6a845d9ee5f339dfd3ed9bfa26f41.jpg
CrackData/train/175_jpg.rf.376c975189bcb16f1b629ca0aca51d3f.jpg
CrackData/train/520_JPG.rf.429c8da0bbfac625c93c5d0c19cf6437.jpg
CrackData/train/216_jpg.rf.0eb55b9fb1b7766323397a89af4a2f85.jpg
CrackData/train/116_jpg.rf.dccdb654b31603ec48a24014106a78f2.jpg
CrackData/train/136_jpg.rf.3ee8973d371cce94f0f57897732ba4bb.jpg
CrackData/train/373_JPG.rf.f2ba49270aa3369c0c8727e2ce5d3c17.jpg
CrackData/train/118_jpg.rf.8cc95b74134de59c776fde6fc866639b.jpg
CrackData/train/205_jpg.rf.c3e3cbe74094aff2651bb63ea3aae167.jpg
CrackData/train/457_JPG.rf.33fb414774fed07445b6013c87a91d2c.jpg
CrackData/train/383_JPG.rf.0446e72a1c4e4849121ca6b4a7cbde3c.jpg
CrackData/train/183_jpg.rf.35e09c4410d2477f1adb94ca008d84e5.jpg
CrackData/train/070_jpg.rf.062ae7eeccd3ae46ece47010c578d745.jpg
CrackData/train/447_JPG.rf.1b519facfe630cf1dee948a096812e4a.jpg
CrackData/train/528_JPG.rf.40755f8638179a206b4737f8d3180cee.jpg
CrackData/train/437_JPG.rf.6b52596442df7958c942ff175d486945.jpg
CrackData/train/134_jpg.rf.18793e97ea1afed0179e2d3191a614ae.jpg
CrackData/train/064_jpg.rf.0f7631b047c307ed9411bdb79a1b1cc3.jpg
CrackData/train/075_jpg.rf.c662a890dab0abb290b89179f039eb94.jpg
CrackData/train/497_JPG.rf.d9a19a98c270d3293712c92644b8a808.jpg
CrackData/train/285_jpg.rf.f86c122dcbd8b3aa697457b7564a6131.jpg
CrackData/train/128_jpg.rf.c07391823bb5b6e694c4be18c1b01bad.jpg
CrackData/train/510_JPG.rf.7cf437e7893945c836fe58baedaf5a3d.jpg
CrackData/train/124_jpg.rf.63c3f50681f9efac5ef9363d867989f6.jpg
CrackData/train/460_JPG.rf.69030f00a07a258866a4ab4eb74c931d.jpg
CrackData/train/262_jpg.rf.50a0c7c80113ba2b52a51b736416b795.jpg
CrackData/train/146_jpg.rf.8ff78f92cfce386325bd080e208618d7.jpg
CrackData/train/449_JPG.rf.9365b0d80e0503bb5b614c768544e2ca.jpg
CrackData/train/086_jpg.rf.0f38240c3634a9fa70324845753c070f.jpg
CrackData/train/577_JPG.rf.d6e95e4d2fccba7cc32f30bfa677d64f.jpg
CrackData/train/094_jpg.rf.c61150801e4dba551fa3a738c1c2b4e3.jpg
CrackData/train/053_jpg.rf.a1bfa3d23fcc05a687c238bbcb507e13.jpg
CrackData/train/183_jpg.rf.6b71b3f5788e1f78c45e38f904912366.jpg
CrackData/train/233_jpg.rf.f4a663482284bbfbb53f3911cc7eaa67.jpg
CrackData/train/520_JPG.rf.aa952a2dc5890351d7c321c0d8baa639.jpg
CrackData/train/025_jpg.rf.c81d0edaaed52d236c6b556a258873c3.jpg
CrackData/train/113_jpg.rf.96aa6f9133475d1d2244e5f500de59c0.jpg
CrackData/train/573_JPG.rf.71d80a93d294b4e939e8ec896654c593.jpg
CrackData/train/278_jpg.rf.c9f8594154b590a99403db80e74e4f9d.jpg
CrackData/train/089_jpg.rf.296639b89816851ea0bb5583823a3c61.jpg
CrackData/train/439_JPG.rf.4d651897f35d7055211a835454ee0eb9.jpg
CrackData/train/551_JPG.rf.ca8dd3a7fbe49f40c41df6eca6c6892a.jpg
CrackData/train/452_JPG.rf.3548be05225c165923d883c80e7427c2.jpg
CrackData/train/406_JPG.rf.63c5c647f851285a5178d892c3c3e2b3.jpg
CrackData/train/270_jpg.rf.709ab14c616f8c181c6dd290593ba8a1.jpg
CrackData/train/265_jpg.rf.3eb3bdedd89343e4b3f15873ae6431df.jpg
CrackData/train/458_JPG.rf.66499eee570e33863f6a93d984faf08c.jpg
CrackData/train/427_JPG.rf.399495ae2e97860fcb9ea6195d1322e2.jpg
CrackData/train/468_JPG.rf.d9b263d74462a12efc7aaee01ff44ea1.jpg
CrackData/train/576_JPG.rf.2d85564107db21cf9048d06fa713d248.jpg
CrackData/train/050_jpg.rf.2fd757c1d5f3ee13b872f29c016ab247.jpg
CrackData/train/001_jpg.rf.61ca673972d88eed788f5b146d8f8125.jpg
CrackData/train/368_JPG.rf.b328079a5aaf7cbcb9e8c3b2d01fd605.jpg
CrackData/train/563_JPG.rf.73e86666dfba082104eac7ee3e1cb244.jpg
CrackData/train/508_JPG.rf.bc6eadd12b93618478f709ad65a5bca3.jpg
CrackData/train/265_jpg.rf.bc3e8046b4700ec037b1032858532ca6.jpg
CrackData/train/591_JPG.rf.92a6a58acd6c671a85e5301549804159.jpg
CrackData/train/270_jpg.rf.f63400636757ca3fcdefc226b1eeaf66.jpg
CrackData/train/249_jpg.rf.e7627cfcd14084902bd7ff4cbf22bdc1.jpg
CrackData/train/138_jpg.rf.79d7887136f6b679c06095cc5bced75a.jpg
CrackData/train/240_jpg.rf.8a751772e9b4cea274aa08e2bc94765d.jpg
CrackData/train/172_jpg.rf.d2337c0835dccf9f49fba05db7e2c8a9.jpg
CrackData/train/449_JPG.rf.fd90ed69a424d6d688c72d63b8685540.jpg
CrackData/train/410_JPG.rf.da03e2e07ff87f9ef6c6f9eff1c718f7.jpg
CrackData/train/146_jpg.rf.ac77047bc98977dde05b3e6b1b965464.jpg
CrackData/train/554_JPG.rf.b37f779206c49bc42a21232abda44f8f.jpg
CrackData/train/032_jpg.rf.b71ea490990b71d334552aff885a778b.jpg
